<?xml version="1.0" encoding="UTF-8"?>
<svg width="24px" height="24px" viewBox="0 0 24 24" version="1.1" xmlns="http://www.w3.org/2000/svg" xmlns:xlink="http://www.w3.org/1999/xlink">
    <!-- Generator: Sketch 52.3 (67297) - http://www.bohemiancoding.com/sketch -->
    <title>icon/information/map - clicked</title>
    <desc>Created with Sketch.</desc>
    <g id="icon/information/map---clicked" stroke="none" stroke-width="1" fill="none" fill-rule="evenodd">
        <g id="icon/information/map">
            <rect id="Bounds" x="0" y="0" width="24" height="24"></rect>
            <g id="shape" transform="translate(2.000000, 0.000000)">
                <path d="M10.6074739,3 C10.6081735,3.03496051 10.5072635,3.31608891 10.5,3.34960508 C10,5.65675547 6,12 5.0074331,12.918788 L4.69108313,13.2895053 C4.60145771,13.3945336 4.44365972,13.4070201 4.33863145,13.3173946 C4.3183863,13.3001185 4.30102968,13.2797205 4.28721711,13.2569709 L1.46369552,8.60657473 C1.39203835,8.48855395 1.238274,8.45096882 1.12025322,8.52262599 C1.04558941,8.56795866 1,8.64897314 1,8.7363215 L1,21.75 C1,21.8880712 1.11192881,22 1.25,22 L4.84179216,22 C4.93840394,22 5.02636843,21.9443333 5.06772662,21.8570216 L13.8308845,3.35702159 C13.8899909,3.23224143 13.8367518,3.08317193 13.7119716,3.02406554 C13.6785193,3.00821969 13.6419656,3 13.6049501,3 L10.6074739,3 Z" id="map-left" fill="#4F7942"></path>
                <path d="M6.93710738,22 L18.75,22 C18.8880712,22 19,21.8880712 19,21.75 L19,19.1445066 C19,19.0550996 18.9522544,18.9724986 18.8747805,18.9278736 L10.6533819,14.1923519 C10.5337388,14.1234376 10.3808828,14.1645613 10.3119685,14.2842044 C10.3091571,14.2890853 10.3065115,14.2940597 10.3040362,14.2991193 L6.71254212,21.6401344 C6.65186504,21.7641584 6.70321784,21.9138882 6.82724181,21.9745653 C6.86144854,21.9913004 6.89902633,22 6.93710738,22 Z" id="map-bottom" fill="#4F7942"></path>
                <path d="M15.5620348,3.14099818 L11.0473408,12.4595767 C10.9888974,12.5802072 11.0359916,12.7254642 11.1540971,12.7888552 L18.6317705,16.8023596 C18.753426,16.8676559 18.9049803,16.8219678 18.9702766,16.7003124 C18.9897886,16.6639591 19,16.6233417 19,16.5820829 L19,3.25 C19,3.11192881 18.8880712,3 18.75,3 L15.7870206,3 C15.6912017,3 15.6038125,3.05476664 15.5620348,3.14099818 Z" id="map-right" fill="#4F7942"></path>
                <path d="M4.75012151,12.5 C4.75012151,12.5 0.25,7.33729781 0.25,4.90461465 C0.25,2.47216936 2.26482382,0.5 4.75012151,0.5 C7.2354192,0.5 9.25,2.47193149 9.25,4.90461465 C9.25,7.33729781 4.75012151,12.5 4.75012151,12.5 Z M4.74987849,2.2188392 C3.78001215,2.2188392 2.99386391,2.9885823 2.9936209,3.9376784 C2.9936209,4.88725024 3.77976914,5.65675547 4.74987849,5.65675547 C5.71998785,5.65675547 6.50613609,4.88725024 6.50613609,3.9376784 C6.50613609,2.98834443 5.71974484,2.2188392 4.74987849,2.2188392 Z" id="pin-" fill="#CE4033"></path>
            </g>
        </g>
    </g>
</svg>