<?xml version="1.0" encoding="UTF-8"?>
<svg width="30px" height="30px" viewBox="0 0 30 30" version="1.1" xmlns="http://www.w3.org/2000/svg" xmlns:xlink="http://www.w3.org/1999/xlink">
    <!-- Generator: Sketch 58 (84663) - https://sketch.com -->
    <title>cancel (1)</title>
    <desc>Created with Sketch.</desc>
    <g id="Restaurant-Details-Desktop" stroke="none" stroke-width="1" fill="none" fill-rule="evenodd">
        <g id="05.-Restaurant-Detail-More-Info-Modal" transform="translate(-975.000000, -239.000000)" fill="#FFFFFF" fill-rule="nonzero">
            <g id="Group-29" transform="translate(499.000000, 239.000000)">
                <g id="cancel-(1)" transform="translate(476.000000, 0.000000)">
                    <path d="M24.9849579,4.28735965 C22.2191182,1.52151988 18.5477585,0 14.6361588,0 C10.7245591,0 7.05319942,1.52151988 4.28735965,4.28735965 C1.52151988,7.05319942 0,10.7245591 0,14.6361588 C0,18.5477585 1.52151988,22.2191182 4.28735965,24.9849579 C7.05319942,27.7507977 10.7245591,29.2723176 14.6361588,29.2723176 C18.5477585,29.2723176 22.2191182,27.7507977 24.9849579,24.9849579 C27.7507977,22.2191182 29.2723176,18.5477585 29.2723176,14.6361588 C29.2723176,10.7245591 27.7507977,7.05319942 24.9849579,4.28735965 Z M23.808398,23.808398 C21.3567182,26.2600778 18.0980785,27.6091177 14.6361588,27.6091177 C11.1742391,27.6091177 7.91559935,26.2600778 5.46391955,23.808398 C0.406559967,18.7510385 0.406559967,10.5212791 5.46391955,5.46391955 C7.91559935,3.01223975 11.1742391,1.66319986 14.6361588,1.66319986 C18.0980785,1.66319986 21.3567182,3.01223975 23.808398,5.46391955 C28.8657576,10.5212791 28.8657576,18.7510385 23.808398,23.808398 Z" id="Shape"></path>
                    <path d="M21.0856783,8.18663933 C20.7591983,7.86015936 20.2355983,7.86015936 19.9091184,8.18663933 L14.6361588,13.4595989 L9.36319923,8.18663933 C9.03671926,7.86015936 8.5131193,7.86015936 8.18663933,8.18663933 C7.86015936,8.5131193 7.86015936,9.03671926 8.18663933,9.36319923 L13.4595989,14.6361588 L8.18663933,19.9091184 C7.86015936,20.2355983 7.86015936,20.7591983 8.18663933,21.0856783 C8.34679932,21.2458383 8.5623993,21.3320782 8.77183928,21.3320782 C8.98127926,21.3320782 9.19687925,21.2519983 9.35703923,21.0856783 L14.6299988,15.8127187 L19.9029584,21.0856783 C20.0631184,21.2458383 20.2787183,21.3320782 20.4881583,21.3320782 C20.7037583,21.3320782 20.9131983,21.2519983 21.0733583,21.0856783 C21.3998382,20.7591983 21.3998382,20.2355983 21.0733583,19.9091184 L15.8127187,14.6361588 L21.0856783,9.36319923 C21.4121582,9.03671926 21.4121582,8.5131193 21.0856783,8.18663933 Z" id="Path"></path>
                </g>
            </g>
        </g>
    </g>
</svg>