<?xml version="1.0" encoding="UTF-8"?>
<svg width="108px" height="19px" viewBox="0 0 108 19" version="1.1" xmlns="http://www.w3.org/2000/svg" xmlns:xlink="http://www.w3.org/1999/xlink">
    <!-- Generator: Sketch 58 (84663) - https://sketch.com -->
    <title>Group 22</title>
    <desc>Created with Sketch.</desc>
    <g id="Page-1" stroke="none" stroke-width="1" fill="none" fill-rule="evenodd">
        <g id="GoDysh_Splash_V03_121219" transform="translate(-554.000000, -2465.000000)">
            <g id="Bitmap" transform="translate(265.000000, 2285.000000)">
                <g id="Rectangle-+-Bitmap-Copy-+-Rectangle-Copy-+-Bitmap-Copy-2-Mask">
                    <g id="Group-22" transform="translate(289.167969, 181.000000)">
                        <path d="M2.62900812e-13,8.5 L99.7421875,8.5" id="Path-11" stroke="#100000" stroke-dasharray="4"></path>
                        <polyline id="Path-12" stroke="#333333" points="97.8320312 0 106.832031 8.78948492 97.8320312 18"></polyline>
                    </g>
                </g>
            </g>
        </g>
    </g>
</svg>