<?xml version="1.0" encoding="UTF-8"?>
<svg width="24px" height="24px" viewBox="0 0 24 24" version="1.1" xmlns="http://www.w3.org/2000/svg" xmlns:xlink="http://www.w3.org/1999/xlink">
    <!-- Generator: Sketch 52.3 (67297) - http://www.bohemiancoding.com/sketch -->
    <title>icon/information/help</title>
    <desc>Created with Sketch.</desc>
    <g id="icon/information/help" stroke="none" stroke-width="1" fill="none" fill-rule="evenodd">
        <g>
            <polygon id="bounds" points="0 0 24 0 24 24 0 24"></polygon>
            <path d="M11,18 L13,18 L13,16 L11,16 L11,18 Z M12,2 C6.48,2 2,6.48 2,12 C2,17.52 6.48,22 12,22 C17.52,22 22,17.52 22,12 C22,6.48 17.52,2 12,2 Z M12,21 C7.03875,21 3,16.96125 3,12 C3,7.03875 7.03875,3 12,3 C16.96125,3 21,7.03875 21,12 C21,16.96125 16.96125,21 12,21 Z M12,6 C9.79,6 8,7.79 8,10 L10,10 C10,8.9 10.9,8 12,8 C13.1,8 14,8.9 14,10 C14,12 11,11.75 11,15 L13,15 C13,12.75 16,12.5 16,10 C16,7.79 14.21,6 12,6 Z" id="Shape" fill="#454545"></path>
        </g>
    </g>
</svg>