<?xml version="1.0" encoding="UTF-8"?>
<svg width="24px" height="24px" viewBox="0 0 24 24" version="1.1" xmlns="http://www.w3.org/2000/svg" xmlns:xlink="http://www.w3.org/1999/xlink">
    <!-- Generator: Sketch 52.3 (67297) - http://www.bohemiancoding.com/sketch -->
    <title>icon/action/cart</title>
    <desc>Created with Sketch.</desc>
    <defs>
        <path d="M7.99,18 C6.89,18 6,18.9 6,20 C6,21.1 6.89,22 7.99,22 C9.09,22 9.99,21.1 9.99,20 C9.99,18.9 9.09,18 7.99,18 Z M2,3 C2,2.45 2.45,2 3,2 L4.64,2 C5.02,2 5.38,2.22 5.54,2.57 L6.21,4 L21.01,4 C21.77,4 22.25,4.82 21.88,5.48 L18.3,11.97 C17.96,12.59 17.3,13 16.55,13 L9.1,13 L8,15 L19,15 C19.55,15 20,15.45 20,16 C20,16.55 19.55,17 19,17 L8,17 C6.48,17 5.52,15.37 6.25,14.03 L7.6,11.59 L4,4 L3,4 C2.45,4 2,3.55 2,3 Z M6.4,5 L8.9,11 C9.23333333,11.6002228 9.70339647,11.9003343 10.3101894,11.9003343 C12.0367298,11.9003343 13.9407109,11.9003343 16.0221328,11.9003343 C16.5971606,11.9003343 17.1031851,11.5859857 17.3638644,11.1106293 L20.1086641,6.13472163 C20.3923445,5.62869712 20.0243266,5 19.4416317,5 L8.09441541,5 L6.4,5 Z M17.99,18 C16.89,18 16,18.9 16,20 C16,21.1 16.89,22 17.99,22 C19.09,22 19.99,21.1 19.99,20 C19.99,18.9 19.09,18 17.99,18 Z" id="path-1"></path>
    </defs>
    <g id="icon/action/cart" stroke="none" stroke-width="1" fill="none" fill-rule="evenodd">
        <g>
            <rect id="Rectangle" x="0" y="0" width="24" height="24"></rect>
            <mask id="mask-2" fill="white">
                <use xlink:href="#path-1"></use>
            </mask>
            <use id="shape" fill="#454545" xlink:href="#path-1"></use>
        </g>
    </g>
</svg>