<?xml version="1.0" encoding="UTF-8"?>
<svg width="18px" height="18px" viewBox="0 0 18 18" version="1.1" xmlns="http://www.w3.org/2000/svg" xmlns:xlink="http://www.w3.org/1999/xlink">
    <!-- Generator: Sketch 55.2 (78181) - https://sketchapp.com -->
    <title>close icon</title>
    <desc>Created with Sketch.</desc>
    <g id="12.-Restaurant-Detail-Page---desktop" stroke="none" stroke-width="1" fill="none" fill-rule="evenodd">
        <g id="desktop:restaurant-detail-customize-dish" transform="translate(-1219.000000, -143.000000)">
            <g id="Overlay" transform="translate(0.000000, 96.000000)">
                <g id="review-pop-up" transform="translate(32.000000, 40.000000)">
                    <g id="icon/navigation/close" transform="translate(1180.000000, 0.000000)">
                        <g>
                            <polygon id="bounds" points="0 0 32 0 32 32 0 32"></polygon>
                            <path d="M24.4,7.61333333 L24.4,7.61333333 C23.88,7.09333333 23.04,7.09333333 22.52,7.61333333 L16,14.12 L9.48,7.6 C8.96,7.08 8.12,7.08 7.6,7.6 L7.6,7.6 C7.08,8.12 7.08,8.96 7.6,9.48 L14.12,16 L7.6,22.52 C7.08,23.04 7.08,23.88 7.6,24.4 L7.6,24.4 C8.12,24.92 8.96,24.92 9.48,24.4 L16,17.88 L22.52,24.4 C23.04,24.92 23.88,24.92 24.4,24.4 L24.4,24.4 C24.92,23.88 24.92,23.04 24.4,22.52 L17.88,16 L24.4,9.48 C24.9066667,8.97333333 24.9066667,8.12 24.4,7.61333333 Z" id="Shape" fill="#454545"></path>
                        </g>
                    </g>
                </g>
            </g>
        </g>
    </g>
</svg>