<?xml version="1.0" encoding="UTF-8"?>
<svg width="27px" height="25px" viewBox="0 0 27 25" version="1.1" xmlns="http://www.w3.org/2000/svg" xmlns:xlink="http://www.w3.org/1999/xlink">
    <!-- Generator: Sketch 60 (88103) - https://sketch.com -->
    <title>Group 30</title>
    <desc>Created with Sketch.</desc>
    <g id="Navigation-Panel---desktop" stroke="none" stroke-width="1" fill="none" fill-rule="evenodd">
        <g id="01.-delivery-tracker-default" transform="translate(-979.000000, -1007.000000)">
            <g id="Group-30" transform="translate(979.000000, 1007.000000)">
                <circle id="Oval" fill="#FFD542" cx="9" cy="14" r="9"></circle>
                <g id="logout" fill="#000000" fill-rule="nonzero">
                    <path d="M26.6990616,11.7078203 L23.806519,9.66857848 C23.2824261,9.29913685 22.5580629,9.67533688 22.5580629,10.3159065 L22.5580629,11.5631483 L8.66954959,11.5631483 C8.23215435,11.5631483 7.87749672,11.9177531 7.87749672,12.3552011 C7.87749672,12.7926492 8.23215435,13.1472012 8.66954959,13.1472012 L22.5579573,13.1472012 L22.5579573,14.3943901 C22.5579573,15.0391838 23.2861749,15.4083614 23.8063606,15.0417182 L26.6989032,13.0024764 C27.1406281,12.6912732 27.1495513,12.0260987 26.6990616,11.7078203 Z" id="Path"></path>
                    <path d="M22.7288709,17.4407392 C22.3503476,17.2218304 21.8657492,17.3510848 21.646682,17.7297664 C19.786221,20.9461315 16.3084431,23.1053877 12.3342395,23.1053877 C6.40659418,23.1053877 1.58405294,18.2828465 1.58405294,12.3552011 C1.58405294,6.42755579 6.40659418,1.60501455 12.3342395,1.60501455 C16.3110831,1.60501455 19.787277,3.76627714 21.6466292,6.98053024 C21.8656436,7.35921187 22.3503476,7.48841348 22.7288181,7.26955746 C23.1074469,7.05054304 23.2368069,6.5659974 23.0178453,6.18736856 C20.8780723,2.48830583 16.8816927,0.0209616019 12.3342395,0.0209616019 C5.5170725,0.0209616019 0,5.53745331 0,12.3552011 C0,19.1723681 5.5164917,24.6894407 12.3342395,24.6894407 C16.8836463,24.6894407 20.8790227,22.220354 23.0178981,18.5229281 C23.2368597,18.1442993 23.1074997,17.6598064 22.7288709,17.4407392 Z" id="Path"></path>
                </g>
            </g>
        </g>
    </g>
</svg>