<?xml version="1.0" encoding="UTF-8"?>
<svg width="86px" height="86px" viewBox="0 0 86 86" version="1.1" xmlns="http://www.w3.org/2000/svg" xmlns:xlink="http://www.w3.org/1999/xlink">
    <!-- Generator: Sketch 59.1 (86144) - https://sketch.com -->
    <title>icon/action/favorited/dish</title>
    <desc>Created with Sketch.</desc>
    <defs>
        <path d="M19.6635711,3.99065415 C21.0735711,4.95065415 21.9435711,6.58065415 22.0035711,8.28065415 C22.1435711,12.1606542 18.7035711,15.2706542 13.4535711,20.0406542 L13.3535711,20.1306542 C12.5935711,20.8206542 11.4235711,20.8206542 10.6635711,20.1206542 L10.5535711,20.0206542 C5.30357106,15.2706542 1.87357106,12.1606542 2.00357106,8.28065415 C2.06357106,6.58065415 2.93357106,4.95065415 4.34357106,3.99065415 C6.98357106,2.19065415 10.2435711,3.03065415 12.0035711,5.09065415 C13.7635711,3.03065415 17.0235711,2.18065415 19.6635711,3.99065415 Z M18.5150542,4.84211317 C16.270902,3.30350877 13.4997139,4.0260578 12.0036124,5.77717662 C10.5075109,4.0260578 7.73632285,3.31200935 5.49217058,4.84211317 C4.29358925,5.65816854 3.55403906,7.04376256 3.5030356,8.48886062 C3.39252811,11.7870844 6.30822595,14.4307638 10.7710288,18.4685378 L10.7710288,18.4685378 L10.8645351,18.5535436 C11.510579,19.1485839 12.5051464,19.1485839 13.1511903,18.5620441 L13.1511903,18.5620441 L13.236196,18.4855389 C17.6989989,14.4307638 20.6231973,11.7870844 20.5041892,8.48886062 C20.4531857,7.04376256 19.7136356,5.65816854 18.5150542,4.84211317 Z" id="path-1"></path>
        <filter x="-279.9%" y="-283.3%" width="659.8%" height="757.3%" filterUnits="objectBoundingBox" id="filter-3">
            <feMorphology radius="2.5" operator="erode" in="SourceAlpha" result="shadowSpreadOuter1"></feMorphology>
            <feOffset dx="0" dy="8" in="shadowSpreadOuter1" result="shadowOffsetOuter1"></feOffset>
            <feGaussianBlur stdDeviation="5" in="shadowOffsetOuter1" result="shadowBlurOuter1"></feGaussianBlur>
            <feColorMatrix values="0 0 0 0 0   0 0 0 0 0   0 0 0 0 0  0 0 0 0.2 0" type="matrix" in="shadowBlurOuter1" result="shadowMatrixOuter1"></feColorMatrix>
            <feMorphology radius="2.5" operator="dilate" in="SourceAlpha" result="shadowSpreadOuter2"></feMorphology>
            <feOffset dx="0" dy="6" in="shadowSpreadOuter2" result="shadowOffsetOuter2"></feOffset>
            <feGaussianBlur stdDeviation="15" in="shadowOffsetOuter2" result="shadowBlurOuter2"></feGaussianBlur>
            <feColorMatrix values="0 0 0 0 0   0 0 0 0 0   0 0 0 0 0  0 0 0 0.12 0" type="matrix" in="shadowBlurOuter2" result="shadowMatrixOuter2"></feColorMatrix>
            <feMorphology radius="1" operator="dilate" in="SourceAlpha" result="shadowSpreadOuter3"></feMorphology>
            <feOffset dx="0" dy="16" in="shadowSpreadOuter3" result="shadowOffsetOuter3"></feOffset>
            <feGaussianBlur stdDeviation="12" in="shadowOffsetOuter3" result="shadowBlurOuter3"></feGaussianBlur>
            <feColorMatrix values="0 0 0 0 0   0 0 0 0 0   0 0 0 0 0  0 0 0 0.14 0" type="matrix" in="shadowBlurOuter3" result="shadowMatrixOuter3"></feColorMatrix>
            <feMerge>
                <feMergeNode in="shadowMatrixOuter1"></feMergeNode>
                <feMergeNode in="shadowMatrixOuter2"></feMergeNode>
                <feMergeNode in="shadowMatrixOuter3"></feMergeNode>
            </feMerge>
        </filter>
    </defs>
    <g id="9.-Search-Result---dish-desktop" stroke="none" stroke-width="1" fill="none" fill-rule="evenodd">
        <g id="desktop:search-results-dish-defaultV1.0-4-cards-error" transform="translate(-255.000000, -187.000000)">
            <g id="dishes" transform="translate(43.000000, 212.000000)">
                <g id="icon/action/favorited/dish" transform="translate(243.000000, 0.000000)">
                    <g>
                        <rect id="bounds" x="0" y="0" width="24" height="24"></rect>
                        <mask id="mask-2" fill="white">
                            <use xlink:href="#path-1"></use>
                        </mask>
                        <g id="Combined-Shape">
                            <use fill="black" fill-opacity="1" filter="url(#filter-3)" xlink:href="#path-1"></use>
                            <use fill="#FFFFFF" fill-rule="evenodd" xlink:href="#path-1"></use>
                        </g>
                    </g>
                </g>
            </g>
        </g>
    </g>
</svg>