<?xml version="1.0" encoding="UTF-8"?>
<svg width="342px" height="140px" viewBox="0 0 342 140" version="1.1" xmlns="http://www.w3.org/2000/svg" xmlns:xlink="http://www.w3.org/1999/xlink">
    <!-- Generator: Sketch 55.2 (78181) - https://sketchapp.com -->
    <title>GoDysh-Logomark&amp; Logotype</title>
    <desc>Created with Sketch.</desc>
    <defs>
        <rect id="path-1" x="0" y="0" width="144" height="144"></rect>
    </defs>
    <g id="Symbols" stroke="none" stroke-width="1" fill="none" fill-rule="evenodd">
        <g id="GoDysh-Logomark&amp;-Logotype" transform="translate(-3.000000, -14.000000)">
            <g>
                <rect id="bounds" x="0" y="0" width="398" height="171"></rect>
                <g id="GoDysh-logo-at-192-p-Copy-3" transform="translate(0.000000, 10.000000)">
                    <mask id="mask-2" fill="white">
                        <use xlink:href="#path-1"></use>
                    </mask>
                    <g id="Boundary-192-p"></g>
                    <g id="logo" mask="url(#mask-2)" fill-rule="nonzero">
                        <g transform="translate(3.750000, 4.500000)">
                            <path d="M83.4630507,71.6717792 C85.2215118,78.6351872 77.2352068,88.0028692 68.1050988,87.8615827 C57.2094429,87.6900204 49.7891336,79.4463834 49.7891336,69.0690312 C49.7891336,62.1176374 53.7019696,56.0000264 59.3246042,52.7139129 C59.3425574,52.703821 59.3501166,52.6918068 59.3694871,52.681715 C59.3949994,52.6682591 59.4224015,52.6557644 59.4479139,52.6418279 C60.3748619,52.1093603 61.3457479,51.6508999 62.3553749,51.2799026 C69.2777212,48.5642215 77.1170941,49.1860745 80.7733894,50.2788827 C86.4352375,51.969996 92.1755123,56.185525 92.2222849,56.2215675 C87.252577,47.2801479 77.8758498,41.25 67.1247638,41.25 C51.1767211,41.25 38.25,54.5145954 38.25,70.8740389 C38.25,87.2378074 51.1767211,100.5 67.1247638,100.5 C83.0728065,100.5 96,87.2373268 96,70.8740389 C96,70.1065742 93.9259418,67.2049139 88.156375,66.1885159 C85.8961713,65.7910874 69.4676463,66.7325171 66.299865,66.9684752 C66.299865,66.9679947 82.8498098,69.2429963 83.4630507,71.6717792 Z" id="Shape" fill="#A8A8A8"></path>
                            <path d="M81.0497546,67.9212986 C82.8310529,74.8866289 74.740551,84.2528692 65.4904344,84.1111021 C54.4547122,83.9419427 46.9385139,75.6963834 46.9385139,65.3190312 C46.9385139,58.3695597 50.9021659,52.2500264 56.5978218,48.9634323 C56.6155295,48.9533404 56.6236655,48.9432485 56.6432875,48.9336372 C56.6691312,48.9197008 56.6949748,48.9076866 56.7208185,48.8937502 C57.6602835,48.3593603 58.6432998,47.9008999 59.6660388,47.5318249 C66.6802,44.813741 74.6218616,45.4360745 78.3251626,46.5288827 C84.0605412,48.219996 89.8729721,52.435525 89.9227451,52.4710869 C84.8884955,43.5315896 75.3904712,37.5 64.4997607,37.5 C48.3446006,37.5 35.25,50.7641149 35.25,67.1254806 C35.25,83.4873268 48.3446006,96.75 64.4997607,96.75 C80.6544423,96.75 93.75,83.4873268 93.75,67.1254806 C93.75,66.3560937 91.649006,63.4544334 85.8045098,62.4375547 C83.5144742,62.0410874 66.8730703,62.9820365 63.664149,63.2194364 C63.6636704,63.2194364 80.4280709,65.4925157 81.0497546,67.9212986 Z" id="Shape" fill="#4F7942"></path>
                            <path d="M70.2879616,133.494708 C34.3237554,133.494708 5.16708835,104.161075 5.16708835,67.9796509 C5.16708835,31.7953631 34.3242297,2.46173046 70.2879616,2.46173046 C88.2285554,2.46173046 104.470348,9.76149147 116.25,21.5656751 C103.998327,8.30201653 86.510304,0 67.0952969,0 C30.0385636,0 0,30.2208674 0,67.5 C0,104.778655 30.0385636,135 67.0952969,135 C79.4038972,135 90.9373393,131.661535 100.85405,125.840816 C91.7400122,130.72371 81.3370486,133.494708 70.2879616,133.494708 Z" id="outer_rim_39_" fill="#4F7942"></path>
                            <path d="M43.6636989,106.432245 C65.5110221,119.045868 93.3946969,111.466714 105.943954,89.5069609 C118.49271,67.5462008 110.953034,39.5204046 89.1052092,26.9062778 C78.2071041,20.6150809 65.8106849,19.3467676 54.5613029,22.3815523 C66.6029373,18.6274858 80.1037993,19.7240379 91.8998906,26.5325334 C114.410681,39.5294712 122.17736,68.4060145 109.245256,91.0301458 C96.3181632,113.653773 67.5906219,121.460096 45.0833389,108.46618 C37.6037952,104.148475 31.7568626,98.076387 27.75,91.0664121 C31.5955057,97.2276547 36.9518532,102.557291 43.6636989,106.432245 Z" id="inner_rim_39_" fill="#4F7942"></path>
                        </g>
                    </g>
                </g>
                <text id="Go-Dysh" font-family="PlayfairDisplay-Regular, Playfair Display" font-size="72" font-weight="normal" line-spacing="67" fill="#4F7942">
                    <tspan x="137" y="88">Go</tspan>
                    <tspan x="165" y="155">	 Dysh</tspan>
                </text>
            </g>
        </g>
    </g>
</svg>