<?xml version="1.0" encoding="UTF-8"?>
<svg width="24px" height="24px" viewBox="0 0 24 24" version="1.1" xmlns="http://www.w3.org/2000/svg" xmlns:xlink="http://www.w3.org/1999/xlink">
    <!-- Generator: Sketch 52.3 (67297) - http://www.bohemiancoding.com/sketch -->
    <title>icon/action/filters</title>
    <desc>Created with Sketch.</desc>
    <g id="icon/action/filters" stroke="none" stroke-width="1" fill="none" fill-rule="evenodd">
        <g>
            <rect id="Bounds" x="0" y="0" width="24" height="24"></rect>
            <g id="shapes" transform="translate(2.000000, 3.000000)" fill="#454545">
                <path d="M7.66816468,2.99705449 C8.05762134,2.99705449 8.447078,2.99705449 8.83653466,2.99705449 C9.76232878,2.99705449 10.6903484,2.99705449 11.6161425,2.99705449 C12.7355522,2.99705449 13.8571874,2.99705449 14.9765971,2.99705449 C15.9513515,2.99705449 16.9261059,2.99705449 17.9008603,2.99705449 C18.3704337,2.99705449 18.8422327,3.00368189 19.3118061,2.99705449 C19.3184825,2.99705449 19.3251589,2.99705449 19.3318353,2.99705449 C19.6812336,2.99705449 20.0150536,2.76840943 19.9994753,2.5 C19.983897,2.22993373 19.7057137,2.00294551 19.3318353,2.00294551 C18.9423787,2.00294551 18.552922,2.00294551 18.1634653,2.00294551 C17.2376712,2.00294551 16.3096516,2.00294551 15.3838575,2.00294551 C14.2644478,2.00294551 13.1428126,2.00294551 12.0234029,2.00294551 C11.0486485,2.00294551 10.0738941,2.00294551 9.09913973,2.00294551 C8.62956627,2.00294551 8.15776734,1.99631811 7.68819388,2.00294551 C7.68151748,2.00294551 7.67484108,2.00294551 7.66816468,2.00294551 C7.31876642,2.00294551 6.98494642,2.23159057 7.00052469,2.5 C7.01610295,2.77006627 7.29428628,2.99705449 7.66816468,2.99705449 Z" id="Path"></path>
                <path d="M0.652519228,3 C1.43927413,3 2.22602903,3 3.01278394,3 C3.1236251,3 3.23663961,3 3.34748077,3 C3.68869768,3 4.01470109,2.77 3.9994876,2.5 C3.98427411,2.22833333 3.71260459,2 3.34748077,2 C2.56072587,2 1.77397097,2 0.987216065,2 C0.876374904,2 0.763360388,2 0.652519228,2 C0.311302322,2 -0.0147010904,2.23 0.000512402227,2.5 C0.0157258948,2.77166667 0.287395405,3 0.652519228,3 Z" id="Path"></path>
                <path d="M5.5,5 C4.11928813,5 3,3.88071187 3,2.5 C3,1.11928813 4.11928813,0 5.5,0 C6.88071187,0 8,1.11928813 8,2.5 C8,3.88071187 6.88071187,5 5.5,5 Z M5.48913043,3.7173913 C6.16748018,3.7173913 6.7173913,3.16748018 6.7173913,2.48913043 C6.7173913,1.81078069 6.16748018,1.26086957 5.48913043,1.26086957 C4.81078069,1.26086957 4.26086957,1.81078069 4.26086957,2.48913043 C4.26086957,3.16748018 4.81078069,3.7173913 5.48913043,3.7173913 Z" id="Combined-Shape"></path>
                <path d="M16.6188924,10 C17.4269434,10 18.2349944,10 19.0409841,10 C19.1543586,10 19.2677331,10 19.3811076,10 C19.7047403,10 20.0139435,9.77 19.999514,9.5 C19.9850845,9.22833333 19.7274152,9 19.3811076,9 C18.5730566,9 17.7650056,9 16.9590159,9 C16.8456414,9 16.7322669,9 16.6188924,9 C16.2952597,9 15.9860565,9.23 16.000486,9.5 C16.0149155,9.77166667 16.2725848,10 16.6188924,10 Z" id="Path"></path>
                <path d="M0.679920618,9.99705449 C1.06717104,9.99705449 1.45668608,9.99705449 1.84393649,9.99705449 C2.7679024,9.99705449 3.69186831,9.99705449 4.61583422,9.99705449 C5.73682228,9.99705449 6.85781033,9.99705449 7.97879838,9.99705449 C8.94805674,9.99705449 9.91731509,9.99705449 10.8865734,9.99705449 C11.3576149,9.99705449 11.8286563,10.0036819 12.2996978,9.99705449 C12.3064916,9.99705449 12.3132855,9.99705449 12.3200794,9.99705449 C12.6756251,9.99705449 13.0153184,9.76840943 12.9994661,9.5 C12.9836137,9.22993373 12.7005359,9.00294551 12.3200794,9.00294551 C11.932829,9.00294551 11.5433139,9.00294551 11.1560635,9.00294551 C10.2320976,9.00294551 9.30813169,9.00294551 8.38416578,9.00294551 C7.26317772,9.00294551 6.14218967,9.00294551 5.02120162,9.00294551 C4.05194326,9.00294551 3.08268491,9.00294551 2.11342655,9.00294551 C1.64238511,9.00294551 1.17134366,8.99631811 0.700302219,9.00294551 C0.693508352,9.00294551 0.686714485,9.00294551 0.679920618,9.00294551 C0.324374913,9.00294551 -0.0153184366,9.23159057 0.000533919652,9.5 C0.0163862759,9.77006627 0.299464067,9.99705449 0.679920618,9.99705449 Z" id="Path"></path>
                <path d="M14.5,12 C13.1192881,12 12,10.8807119 12,9.5 C12,8.11928813 13.1192881,7 14.5,7 C15.8807119,7 17,8.11928813 17,9.5 C17,10.8807119 15.8807119,12 14.5,12 Z M14.4891304,10.7173913 C15.1674802,10.7173913 15.7173913,10.1674802 15.7173913,9.48913043 C15.7173913,8.81078069 15.1674802,8.26086957 14.4891304,8.26086957 C13.8107807,8.26086957 13.2608696,8.81078069 13.2608696,9.48913043 C13.2608696,10.1674802 13.8107807,10.7173913 14.4891304,10.7173913 Z" id="Combined-Shape-Copy"></path>
                <path d="M11.637222,16.9977876 C11.8919107,16.9977876 12.1487218,16.9977876 12.4034104,16.9977876 C13.0167856,16.9977876 13.6322832,16.9977876 14.2456584,16.9977876 C14.9885003,16.9977876 15.7334646,16.9977876 16.4763065,16.9977876 C17.1193954,16.9977876 17.7624842,16.9977876 18.4055731,16.9977876 C18.7196891,16.9977876 19.0338051,17.0027655 19.3479211,16.9977876 C19.3521659,16.9977876 19.3564108,16.9977876 19.362778,16.9977876 C19.6959956,16.9977876 20.0143564,16.7688053 19.9994996,16.5 C19.9846428,16.2295354 19.7193421,16.0022124 19.362778,16.0022124 C19.1080893,16.0022124 18.8512782,16.0022124 18.5965896,16.0022124 C17.9832144,16.0022124 17.3677168,16.0022124 16.7543416,16.0022124 C16.0114997,16.0022124 15.2665354,16.0022124 14.5236935,16.0022124 C13.8806046,16.0022124 13.2375158,16.0022124 12.5944269,16.0022124 C12.2803109,16.0022124 11.9661949,15.9972345 11.6520789,16.0022124 C11.6478341,16.0022124 11.6435892,16.0022124 11.637222,16.0022124 C11.3040044,16.0022124 10.9856436,16.2311947 11.0005004,16.5 C11.0153572,16.7704646 11.2806579,16.9977876 11.637222,16.9977876 Z" id="Path"></path>
                <path d="M0.698127016,17 C1.43988581,17 2.1816446,17 2.92572865,17 C4.11393787,17 5.29982183,17 6.48803105,17 C6.76008678,17 7.03214251,17 7.30187298,17 C7.66693922,17 8.01572862,16.77 7.99945178,16.5 C7.98317494,16.2283333 7.69251711,16 7.30187298,16 C6.56011419,16 5.8183554,16 5.07427135,16 C3.88606213,16 2.70017817,16 1.51196895,16 C1.23991322,16 0.967857485,16 0.698127016,16 C0.333060778,16 -0.0157286221,16.23 0.000548216547,16.5 C0.0168250552,16.7716667 0.307482888,17 0.698127016,17 Z" id="Path"></path>
                <path d="M9.5,19 C8.11928813,19 7,17.8807119 7,16.5 C7,15.1192881 8.11928813,14 9.5,14 C10.8807119,14 12,15.1192881 12,16.5 C12,17.8807119 10.8807119,19 9.5,19 Z M9.48913043,17.7173913 C10.1674802,17.7173913 10.7173913,17.1674802 10.7173913,16.4891304 C10.7173913,15.8107807 10.1674802,15.2608696 9.48913043,15.2608696 C8.81078069,15.2608696 8.26086957,15.8107807 8.26086957,16.4891304 C8.26086957,17.1674802 8.81078069,17.7173913 9.48913043,17.7173913 Z" id="Combined-Shape-Copy"></path>
            </g>
        </g>
    </g>
</svg>