<?xml version="1.0" encoding="UTF-8"?>
<svg width="24px" height="24px" viewBox="0 0 24 24" version="1.1" xmlns="http://www.w3.org/2000/svg" xmlns:xlink="http://www.w3.org/1999/xlink">
    <!-- Generator: Sketch 52.3 (67297) - http://www.bohemiancoding.com/sketch -->
    <title>icon/information/time</title>
    <desc>Created with Sketch.</desc>
    <defs>
        <path d="M12.5,2 C7.258945,2 3,6.25894209 3,11.5000012 C3,16.7410555 7.258945,21 12.5,21 C17.741055,21 22,16.7410555 22,11.5000012 C22,6.25894447 17.741055,2.00000237 12.5,2.00000237 L12.5,2 Z M12.5,2.94999988 C17.2276275,2.94999988 21.05,6.77236478 21.05,11.5000012 C21.05,16.2276281 17.2276275,20.0500001 12.5,20.0500001 C7.7723725,20.0500001 3.95,16.2276281 3.95,11.5000012 C3.95,6.77236478 7.7723725,2.95000226 12.5,2.95000226 L12.5,2.94999988 Z M12.5,4.61249967 C12.2376575,4.61249967 12.025,4.82515715 12.025,5.08749961 L12.025,11.5000012 C12.025,11.6756562 12.1207363,11.8260174 12.2625,11.9081924 C13.9721438,12.8946248 15.6926175,13.8879446 17.4058475,14.876942 C17.6330637,15.0081132 17.9203912,14.9334433 18.0515625,14.7062508 C18.1827337,14.4790583 18.1080637,14.1917071 17.8808475,14.0605359 L12.975,11.22538 L12.975,5.08749961 C12.975,4.82515715 12.7623425,4.61249967 12.5,4.61249967 Z" id="path-1"></path>
    </defs>
    <g id="icon/information/time" stroke="none" stroke-width="1" fill="none" fill-rule="evenodd">
        <g>
            <rect id="bounds" x="0" y="0" width="24" height="24"></rect>
            <mask id="mask-2" fill="white">
                <use xlink:href="#path-1"></use>
            </mask>
            <use id="Shape" fill="#454545" xlink:href="#path-1"></use>
        </g>
    </g>
</svg>