<?xml version="1.0" encoding="UTF-8"?>
<svg width="21px" height="26px" viewBox="0 0 21 26" version="1.1" xmlns="http://www.w3.org/2000/svg" xmlns:xlink="http://www.w3.org/1999/xlink">
    <!-- Generator: Sketch 58 (84663) - https://sketch.com -->
    <title>bell</title>
    <desc>Created with Sketch.</desc>
    <g id="Navigation-Panel---desktop" stroke="none" stroke-width="1" fill="none" fill-rule="evenodd">
        <g id="01.-delivery-tracker-default" transform="translate(-977.000000, -422.000000)">
            <g id="Group-13" transform="translate(921.000000, 80.000000)">
                <g id="Group-3" transform="translate(46.000000, 338.000000)">
                    <g id="bell" transform="translate(10.000000, 4.000000)">
                        <path d="M2.00135661,20.2856003 C5.31506511,20.2856003 16.1246859,14.3137085 16.1246859,11 C16.1246859,7.6862915 12.3137085,5 9,5 C5.6862915,5 3,6.90485418 3,11 C4.39574897,18.21318 -1.31235189,20.2856003 2.00135661,20.2856003 Z" id="Oval" fill="#FFD542"></path>
                        <path d="M19.8600503,20.3726503 C19.7848003,20.3238003 19.2184503,19.9270503 18.6513503,18.7268003 C17.6099003,16.5227002 17.3913003,13.4178002 17.3913003,11.2012502 C17.3913003,11.1916002 17.3911003,11.1820502 17.3907503,11.1724502 C17.3794003,8.24300012 15.6252502,5.71770009 13.1150502,4.58465007 L13.1150502,2.85180004 C13.1150502,1.27930002 11.8378502,-5.68434189e-14 10.2679502,-5.68434189e-14 L10.0320001,-5.68434189e-14 C8.46210013,-5.68434189e-14 7.18490011,1.27930002 7.18490011,2.85180004 L7.18490011,4.58455007 C4.66630007,5.72125009 2.90865004,8.25945012 2.90865004,11.2012502 C2.90865004,13.4178002 2.69005004,16.5226502 1.64860002,18.7268003 C1.08155002,19.9270003 0.515200008,20.3237503 0.439900007,20.3726503 C0.122800002,20.5194003 -0.0335500005,20.8584003 0.0394000006,21.2019503 C0.113050002,21.5489003 0.437350007,21.7881003 0.791500012,21.7881003 L6.28885009,21.7881003 C6.31955009,23.8951504 8.03925012,25.6000004 10.1500002,25.6000004 C12.2607502,25.6000004 13.9804502,23.8951504 14.0111502,21.7881003 L19.5085003,21.7881003 C19.8626003,21.7881003 20.1869503,21.5489003 20.2606003,21.2019503 C20.3334503,20.8584003 20.1771503,20.5193503 19.8600503,20.3726503 Z M8.68495013,2.85180004 C8.68495013,2.10775003 9.28925014,1.50245002 10.0320501,1.50245002 L10.2680002,1.50245002 C11.0108002,1.50245002 11.6151002,2.10775003 11.6151002,2.85180004 L11.6151002,4.09765006 C11.1417002,3.99980006 10.6516502,3.94830006 10.1498002,3.94830006 C9.64810014,3.94830006 9.15820014,3.99975006 8.68500013,4.09750006 L8.68500013,2.85180004 L8.68495013,2.85180004 Z M10.1500002,24.0975504 C8.86635013,24.0975504 7.81930012,23.0667003 7.78885012,21.7881503 L12.5111002,21.7881503 C12.4807002,23.0666503 11.4336502,24.0975504 10.1500002,24.0975504 L10.1500002,24.0975504 Z M13.1700002,20.2856003 C13.1698502,20.2856003 2.50075004,20.2856003 2.50075004,20.2856003 C2.63050004,20.0834003 2.76255004,19.8544503 2.89380004,19.5957003 C3.89900006,17.6135503 4.40870007,14.7892502 4.40870007,11.2012502 C4.40870007,8.03040012 6.9841501,5.45075008 10.1497502,5.45075008 C13.3153502,5.45075008 15.8908002,8.03040012 15.8908002,11.2037502 C15.8908002,11.2130002 15.8909502,11.2222002 15.8913002,11.2314002 C15.8941502,14.8050002 16.4038002,17.6191503 17.4062003,19.5957003 C17.5374503,19.8545003 17.6695503,20.0834003 17.7992503,20.2856003 L13.1700002,20.2856003 Z" id="Shape" fill="#333333" fill-rule="nonzero"></path>
                    </g>
                </g>
            </g>
        </g>
    </g>
</svg>