<?xml version="1.0" encoding="UTF-8"?>
<svg width="10px" height="17px" viewBox="0 0 10 17" version="1.1" xmlns="http://www.w3.org/2000/svg" xmlns:xlink="http://www.w3.org/1999/xlink">
    <!-- Generator: Sketch 58 (84663) - https://sketch.com -->
    <title>right-arrow-angle</title>
    <desc>Created with Sketch.</desc>
    <g id="Dish-Listing-Desktop" stroke="none" stroke-width="1" fill="none" fill-rule="evenodd">
        <g id="12.-Dish-Listing---Address-dropdown" transform="translate(-1242.000000, -190.000000)" fill="#FFFFFF" fill-rule="nonzero">
            <g id="Top" transform="translate(0.000000, -10.000000)">
                <g id="Group-25" transform="translate(765.000000, -0.000000)">
                    <g id="Group-24" transform="translate(28.000000, 97.000000)">
                        <g id="Rectangle" transform="translate(1.000000, 89.000000)">
                            <g id="Group-21">
                                <g id="Group-19" transform="translate(448.000000, 14.000000)">
                                    <g id="right-arrow-angle">
                                        <path d="M9.68044921,7.92233946 L1.21451906,0.207298823 C0.936710866,-0.0690996078 0.486164335,-0.0690996078 0.208356144,0.207298823 C-0.0694520479,0.483675895 -0.0694520479,0.932129145 0.208356144,1.20852758 L8.16382496,8.45892408 L0.209061024,15.7092992 C-0.0687471678,15.9856976 -0.0687471678,16.4341509 0.209061024,16.710528 C0.486869215,16.986905 0.937415746,16.986905 1.21520258,16.710528 L9.68115409,8.99548734 C9.82922163,8.84814604 9.89270356,8.65280882 9.88281388,8.45962896 C9.89202004,8.26572285 9.82855947,8.07040699 9.68044921,7.92233946 Z" id="Path"></path>
                                    </g>
                                </g>
                            </g>
                        </g>
                    </g>
                </g>
            </g>
        </g>
    </g>
</svg>