<?xml version="1.0" standalone="no"?>
<!DOCTYPE svg PUBLIC "-//W3C//DTD SVG 1.1//EN" "http://www.w3.org/Graphics/SVG/1.1/DTD/svg11.dtd" >
<svg xmlns="http://www.w3.org/2000/svg">
<metadata>
<json>
<![CDATA[
{
	"fontFamily": "godysh",
	"majorVersion": 1,
	"minorVersion": 0,
	"version": "Version 1.0",
	"fontId": "godysh",
	"psName": "godysh",
	"subFamily": "Regular",
	"fullName": "godysh",
	"description": "Font generated by IcoMoon."
}
]]>
</json>
</metadata>
<defs>
<font id="godysh" horiz-adv-x="1024">
<font-face units-per-em="1024" ascent="960" descent="-64" />
<missing-glyph horiz-adv-x="1024" />
<glyph unicode="&#x20;" horiz-adv-x="512" d="" />
<glyph unicode="&#xe900;" glyph-name="icon-4" data-tags="icon-4" horiz-adv-x="842" d="M557.044 324.88c-6.006 2.252-44.293 41.29-20.27 115.613v0c62.311 66.065 116.364 171.918 116.364 275.519 0 159.906-110.358 243.988-232.727 243.988-121.619 0-226.721-84.082-226.721-243.988 0-104.352 49.548-210.205 112.61-275.519 24.774-66.065-19.519-111.859-28.528-115.613-128.375-46.545-277.771-132.129-277.771-216.211v-31.531c0-114.862 219.214-141.138 421.912-141.138 203.449 0 419.66 26.276 419.66 141.138v31.531c0 86.334-150.147 171.167-284.528 216.211v0z" />
<glyph unicode="&#xe901;" glyph-name="icon-5" data-tags="icon-5" horiz-adv-x="530" d="M407.398 495.007c-39.808 22.022-83.004 38.961-125.353 56.748-24.562 10.164-48.278 22.022-68.605 38.114-40.655 32.185-33.032 85.545 14.399 106.72 13.552 5.929 27.95 7.623 42.349 8.47 55.054 2.541 108.414-6.776 158.385-31.338 24.562-11.858 33.032-8.47 41.502 17.787 8.47 27.103 16.093 55.054 24.562 83.004 5.082 18.634-1.694 30.491-18.634 38.961-32.185 14.399-65.218 24.562-99.944 29.644-44.89 6.776-44.89 6.776-45.737 52.513 0 64.371 0 64.371-64.371 64.371-9.317 0-18.634 0-27.95 0-29.644-0.847-34.726-5.929-35.573-36.42 0-13.552 0-27.103 0-40.655 0-39.808 0-39.808-38.961-53.36-93.168-33.879-150.763-97.403-156.691-199.041-5.082-89.78 41.502-150.763 115.189-194.806 45.737-27.103 95.709-43.196 143.987-64.371 18.634-8.47 36.42-17.787 52.513-30.491 46.584-38.114 38.114-101.638-16.94-126.2-29.644-12.705-60.136-16.093-92.321-11.858-49.125 5.929-96.556 18.634-140.599 42.349-26.256 13.552-33.879 10.164-42.349-17.787-7.623-24.562-14.399-49.125-21.175-73.687-9.317-33.032-5.929-40.655 25.409-55.901 39.808-19.481 83.004-29.644 127.047-36.42 33.879-5.082 35.573-6.776 35.573-42.349 0-16.093 0-32.185 0.847-48.278 0-20.328 10.164-32.185 30.491-32.185 23.715 0 47.431 0 71.146 0 19.481 0 29.644 11.011 29.644 30.491 0 22.022 0.847 44.043 0 66.065s8.47 33.879 30.491 39.808c49.972 13.552 92.321 39.808 124.506 79.616 89.78 108.414 55.901 269.34-72.84 340.486v0z" />
<glyph unicode="&#xe902;" glyph-name="icon-6" data-tags="icon-6" horiz-adv-x="1083" d="M529.655 38.568c0 57.169-46.24 103.409-103.409 103.409s-103.409-46.24-103.409-103.409c0-57.169 46.24-103.409 103.409-103.409 57.169 0.841 103.409 47.080 103.409 103.409v0zM359.829 38.568c0 36.992 29.425 66.417 66.417 66.417s66.417-29.425 66.417-66.417c0-36.992-29.425-66.417-66.417-66.417s-66.417 30.266-66.417 66.417v0zM808.775-64c57.169 0 103.409 46.24 103.409 103.409s-46.24 103.409-103.409 103.409c-57.169 0-103.409-46.24-103.409-103.409s46.24-103.409 103.409-103.409v0zM808.775 105.826c36.992 0 66.417-29.425 66.417-66.417s-29.425-66.417-66.417-66.417c-36.992 0-66.417 29.425-66.417 66.417 0 36.151 29.425 66.417 66.417 66.417v0zM18.496 923.008h111.816c36.992 0 68.099-26.903 73.984-63.054l88.276-558.24c8.407-53.806 54.647-94.161 110.135-94.161h546.47c10.089 0 18.496 8.407 18.496 18.496s-8.407 18.496-18.496 18.496h-546.47c-36.992 0-68.099 26.903-73.984 63.054l-15.133 95.002h559.921c47.080 0 89.957 30.266 105.090 74.824l104.25 299.297c1.681 5.885 0.841 11.77-2.522 16.814s-9.248 7.567-15.133 7.567h-815.501l-10.089 64.736c-8.407 54.647-54.647 94.161-109.294 94.161h-111.816c-10.089 0-18.496-8.407-18.496-18.496s8.407-18.496 18.496-18.496v0zM1039.133 764.952l-95.842-275.757c-10.089-30.266-38.673-50.443-70.621-50.443h-564.966l-51.284 325.36 782.713 0.841z" />
<glyph unicode="&#xe903;" glyph-name="icon-7" data-tags="icon-7" d="M512 960c-282.122 0-512-229.878-512-512s229.878-512 512-512c282.122 0 512 229.878 512 512s-229.878 512-512 512v0zM512-17.726c-256.746 0-465.726 208.98-465.726 465.726s208.98 465.726 465.726 465.726c256.746 0 465.726-208.98 465.726-465.726s-208.98-465.726-465.726-465.726v0zM354.519 784.606l-18.659 37.318-20.898-10.449 19.405-37.318c5.971 3.732 12.688 7.464 20.152 10.449v0zM138.076 440.536c0 7.464 0.746 15.673 1.493 23.137h-52.991v-46.274h52.991c-0.746 7.464-1.493 14.927-1.493 23.137v0zM544.093 822.671v52.991h-46.274v-52.991c8.21 0.746 15.673 0.746 23.137 0.746 8.21 0 15.673-0.746 23.137-0.746v0zM915.032 615.93l-10.449 20.898-41.796-21.644c3.732-6.717 6.717-13.434 10.449-20.898l41.796 21.644zM724.711 765.201c6.717-3.732 13.434-8.21 19.405-12.688l23.137 35.825-19.405 12.688-23.137-35.825zM155.988 666.682l38.064-26.122c3.732 6.717 8.21 13.434 12.688 19.405l-37.318 26.122-13.434-19.405zM679.184 91.242l28.362-55.977 20.898 10.449-28.362 55.977c-6.717-4.478-14.181-7.464-20.898-10.449v0zM823.977 205.434l49.259-33.586 13.434 19.405-48.513 33.586c-4.478-6.717-8.956-13.434-14.181-19.405v0zM903.837 463.673c0.746-7.464 0.746-15.673 0.746-23.137 0-8.21-0.746-15.673-0.746-23.137h52.991v46.274h-52.991zM497.819 57.656v-52.991h47.020v52.991c-7.464-0.746-15.673-0.746-23.137-0.746-8.21 0-15.673 0.746-23.883 0.746v0zM275.405 68.851l19.405-12.688 33.586 52.245c-6.717 3.732-13.434 8.21-20.152 11.942l-32.84-51.499zM127.627 242.006l10.449-20.898 51.499 26.122c-3.732 6.717-7.464 13.434-11.195 20.152l-50.752-25.376zM537.376 782.367h-32.093v-354.519l-193.306-211.965 5.224-4.478 188.082 206.741h248.536v45.528h-216.443v318.694z" />
<glyph unicode="&#xe904;" glyph-name="icon-8" data-tags="icon-8" horiz-adv-x="616" d="M5.168 78.779c20.028 261.653 41.348 522.66 110.476 777.852 13.567 49.1 34.887 73.65 88.51 76.235 91.094 5.168 181.542 19.382 271.99 25.842 65.252 4.522 67.19 1.938 71.066-66.544 3.876-64.606 1.292-129.857 7.107-194.463 18.736-214.491 40.056-428.982 61.375-642.826 3.23-33.595-6.461-48.454-40.056-54.915-100.139-19.382-199.632-41.348-299.77-61.375-16.797-3.23-36.179-5.168-51.038 0.646-62.021 23.904-124.043 42.64-191.233 37.471-25.196-1.938-35.533 14.859-32.303 40.702 1.938 20.674 1.938 40.702 3.876 61.375zM208.030 784.273c18.736-273.928 36.825-541.396 55.561-815.97 109.83 22.612 217.721 44.578 326.905 67.19-6.461 81.403-11.629 155.054-19.382 228.058-18.736 176.374-37.471 352.747-58.791 529.121-1.292 10.337-21.966 27.134-31.657 25.842-89.802-9.045-179.604-21.966-272.636-34.241zM234.519 10.297c-18.736 259.715-36.179 508.447-53.623 757.179-4.522 0-9.045 0-13.567 0-1.938-13.567-6.461-26.488-6.461-40.056-4.522-172.497-5.168-345.64-14.859-517.491-4.522-80.111 31.657-135.672 88.51-199.632zM138.902 808.177c-69.128-248.086-91.094-501.34-109.184-757.825 83.987 47.808 89.156 59.437 89.802 146.655 0.646 131.796 3.23 264.237 7.107 396.033 1.938 71.712 7.753 143.425 12.275 215.137zM513.615 932.22c-119.521-12.921-233.873-24.55-352.101-36.825 7.107-34.241 11.629-57.499 16.151-81.403 118.874 16.151 231.288 31.011 346.932 46.516-3.23 23.258-6.461 42.64-10.983 71.712zM210.615-13.608c-25.842 36.179-50.392 69.128-76.235 105.307-31.657-27.78-58.145-51.038-84.633-74.943 54.269-9.691 104.015-19.382 160.868-30.365z" />
<glyph unicode="&#xe905;" glyph-name="icon-1" data-tags="icon-1" horiz-adv-x="1014" d="M741.73-64h-668.244c-40.52 0-73.486 32.966-73.486 73.486v526.079c0 40.52 32.966 73.486 73.486 73.486h668.244c40.52 0 73.486-32.966 73.486-73.486v-525.392c0.687-41.207-32.279-74.173-73.486-74.173zM73.486 596.689c-33.653 0-61.124-27.471-61.124-61.124v-525.392c0-33.653 27.471-61.124 61.124-61.124h668.244c33.653 0 61.124 27.471 61.124 61.124v525.392c0 33.653-27.471 61.124-61.124 61.124h-668.244zM940.212 286.948h-130.49v12.362h130.49c33.653 0 61.124 27.471 61.124 61.124v526.079c0 33.653-27.471 61.124-61.124 61.124h-668.244c-33.653 0-61.124-27.471-61.124-61.124v-283.643h-12.362v283.643c0 40.52 32.966 73.486 73.486 73.486h668.244c40.52 0 73.486-32.966 73.486-73.486v-525.392c0-40.52-32.966-74.173-73.486-74.173zM673.052 302.058h-81.728c-26.785 0-48.075 21.29-48.075 48.075v69.366c0 26.785 21.29 48.075 48.075 48.075h81.728c26.785 0 48.075-21.29 48.075-48.075v-70.052c0-26.098-21.977-47.388-48.075-47.388zM591.324 455.211c-19.917 0-35.713-15.796-35.713-35.713v-70.052c0-19.917 15.796-35.713 35.713-35.713h81.728c19.917 0 35.713 15.796 35.713 35.713v70.052c0 19.917-15.796 35.713-35.713 35.713h-81.728zM77.607 471.007h142.165v-41.894h-142.165v41.894zM77.607 119.372h142.165v-41.894h-142.165v41.894zM243.81 119.372h142.165v-41.894h-142.165v41.894zM410.012 119.372h142.165v-41.894h-142.165v41.894zM576.215 119.372h142.165v-41.894h-142.165v41.894zM77.607 293.129h223.206v-41.894h-223.206v41.894zM204.663 851.488h803.541v-12.362h-803.541v12.362zM204.663 723.745h803.541v-12.362h-803.541v12.362z" />
<glyph unicode="&#xe906;" glyph-name="icon-2" data-tags="icon-2" horiz-adv-x="877" d="M0 334.184h235.197v-398.184h-235.197v398.184zM270.27 334.184h345.23v-90.778h-345.23v90.778zM641.633 334.184h235.197v-398.184h-235.197v398.184zM270.27 209.021v-273.021h345.23v273.021h-345.23zM515.782 21.276h-144.419v96.279h144.419v-96.279zM554.982 823.833v136.167h-223.506v-136.167l-181.555-224.881h586.617z" />
<glyph unicode="&#xe907;" glyph-name="icon-3" data-tags="icon-3" d="M512.344 896.043c246.888 0 447.699-200.811 447.699-447.699s-200.811-447.699-447.699-447.699-448.387 200.124-448.387 447.011 200.811 448.387 448.387 448.387zM512.344 960c-283.336 0-512.344-229.007-512.344-512.344 0-282.649 229.007-512.344 512.344-512.344 282.649 0 512.344 229.007 512.344 512.344-0.688 283.336-229.695 512.344-512.344 512.344v0zM797.743 277.104l-2.751 8.94c-6.877 19.944-28.884 41.263-49.515 46.764l-75.648 20.631c-20.631 5.502-49.515-2.063-64.645-17.193l-27.508-27.508c-99.718 26.821-178.117 104.532-204.938 204.25l27.508 27.508c15.13 15.13 22.694 44.013 17.193 64.645l-20.631 75.648c-5.502 20.631-26.821 42.638-46.764 49.515l-8.94 2.751c-19.944 6.877-48.827 0-63.957-15.13l-41.263-41.263c-7.565-7.565-11.691-28.196-11.691-28.196-1.375-129.977 49.515-255.14 141.668-347.293 91.465-91.465 216.629-142.356 346.606-141.668 0.688 0 22.007 4.814 29.572 11.691l41.263 41.263c13.754 15.13 20.631 44.013 14.442 64.645v0z" />
<glyph unicode="&#xe908;" glyph-name="show-more-button-with-three-dots" data-tags="show-more-button-with-three-dots" d="M512 704c70.4 0 128 57.6 128 128s-57.6 128-128 128-128-57.6-128-128 57.6-128 128-128zM512 576c-70.4 0-128-57.6-128-128s57.6-128 128-128 128 57.6 128 128-57.6 128-128 128zM512 192c-70.4 0-128-57.6-128-128s57.6-128 128-128 128 57.6 128 128-57.6 128-128 128z" />
<glyph unicode="&#xe909;" glyph-name="add-plus-button" data-tags="add-plus-button" d="M1024 374.857h-438.857v-438.857h-146.286v438.857h-438.857v146.286h438.857v438.857h146.286v-438.857h438.857v-146.286z" />
<glyph unicode="&#xe90a;" glyph-name="substract" data-tags="substract" d="M0 496.762h1024v-97.524h-1024v97.524z" />
<glyph unicode="&#xe90b;" glyph-name="close-button" data-tags="close-button" d="M1024 857.6l-102.4 102.4-409.6-409.6-409.6 409.6-102.4-102.4 409.6-409.6-409.6-409.6 102.4-102.4 409.6 409.6 409.6-409.6 102.4 102.4-409.6 409.6z" />
<glyph unicode="&#xe90c;" glyph-name="calendar" data-tags="calendar" d="M904 880h-48v80h-80v-80h-528v80h-80v-80h-48c-66.168 0-120-53.832-120-120v-704c0-66.168 53.832-120 120-120h784c66.168 0 120 53.832 120 120v704c0 66.168-53.832 120-120 120zM944 56c0-22.056-17.944-40-40-40h-784c-22.056 0-40 17.944-40 40v528h864v-528zM944 664h-864v96c0 22.056 17.944 40 40 40h48v-80h80v80h528v-80h80v80h48c22.056 0 40-17.944 40-40v-96zM152 500h80v-80h-80v80zM312 500h80v-80h-80v80zM472 500h80v-80h-80v80zM632 500h80v-80h-80v80zM792 500h80v-80h-80v80zM152 340h80v-80h-80v80zM312 340h80v-80h-80v80zM472 340h80v-80h-80v80zM632 340h80v-80h-80v80zM152 180h80v-80h-80v80zM312 180h80v-80h-80v80zM472 180h80v-80h-80v80zM632 180h80v-80h-80v80zM792 340h80v-80h-80v80z" />
<glyph unicode="&#xe90d;" glyph-name="info-button" data-tags="info-button" d="M874.070 810.048c-199.951 199.929-524.144 199.951-724.117 0-199.951-199.951-199.929-524.144 0-724.117 199.951-199.907 524.144-199.929 724.117 0 199.929 199.974 199.907 524.144 0 724.117zM578.773 225.375c0-36.887-29.897-66.784-66.784-66.784s-66.784 29.897-66.784 66.784v267.136c0 36.887 29.897 66.784 66.784 66.784s66.784-29.897 66.784-66.784v-267.136zM510.809 606.668c-38.468 0-64.113 27.248-63.311 60.885-0.801 35.262 24.844 61.686 64.090 61.686 39.269 0 64.113-26.446 64.936-61.686-0.022-33.637-25.645-60.885-65.716-60.885z" />
<glyph unicode="&#xe90e;" glyph-name="comment" data-tags="comment" d="M859.518 890.998h-696.035c-72.773 0-131.982-59.197-131.982-131.982v-425.959c0-72.621 58.951-131.725 131.514-131.982v-193.295l277.787 193.295h418.717c72.773 0 131.982 59.209 131.982 131.982v425.959c0 72.785-59.209 131.982-131.982 131.982zM935.25 333.057c0-41.754-33.973-75.732-75.732-75.732h-436.365l-203.889-141.879v141.879h-55.781c-41.76 0-75.732 33.979-75.732 75.732v425.959c0 41.766 33.973 75.732 75.732 75.732h696.035c41.76 0 75.732-33.967 75.732-75.732zM288.439 692.242h446.121v-56.25h-446.121zM288.439 572.242h446.121v-56.25h-446.121zM288.439 452.242h446.121v-56.25h-446.121z" />
<glyph unicode="&#xe90f;" glyph-name="hashtag" data-tags="hashtag" d="M134.443-64h122.046l70.798 287.744h255.496l-69.968-287.744h122.046l70.798 287.744h250.608v100.649h-226.2l61.022 245.183h165.177v100.649h-140.767l70.798 289.775h-122.876l-70.798-289.773h-256.297l70.798 289.773h-122.075l-70.769-289.773h-246.55v-100.649h222.141l-60.224-245.183h-161.917v-100.649h137.509l-70.798-287.746zM411.92 569.576h256.297l-61.022-245.183h-255.498l60.224 245.183z" />
<glyph unicode="&#xe910;" glyph-name="menu-button-of-three-lines" data-tags="menu-button-of-three-lines" d="M1011.061 634.182c7.123 0 12.939 6.097 12.939 12.939v67.211c0 7.121-5.493 12.939-12.939 12.939h-998.122c-7.121 0-12.939-6.097-12.939-12.939v-67.211c0-7.121 5.493-12.939 12.939-12.939h998.122zM0 414.395c0-7.121 5.493-12.939 12.939-12.939h998.121c7.121 0 12.939 6.099 12.939 12.939v67.211c0 7.168-5.493 12.939-12.939 12.939h-998.121c-7.121 0-12.939-6.099-12.939-12.939v-67.211zM0 181.668c0-7.121 5.493-12.939 12.939-12.939h998.121c7.121 0 12.939 6.099 12.939 12.939v67.211c0 7.121-5.493 12.937-12.939 12.937h-998.121c-7.121 0-12.939-6.097-12.939-12.937v-67.211z" />
<glyph unicode="&#xe911;" glyph-name="dollar-symbol" data-tags="dollar-symbol" d="M495.405 343.337c-4.715 15.841-10.372 29.419-16.972 41.111s-16.218 23.007-28.476 34.133c-12.446 11.126-23.573 20.178-33.379 26.967-9.995 6.978-23.573 14.521-40.734 23.007s-30.927 14.709-40.922 18.858c-9.995 4.149-24.516 9.806-43.562 16.972-16.784 6.412-29.419 11.315-37.716 14.709s-19.047 8.298-32.625 14.521c-13.389 6.223-23.573 11.881-30.173 16.595-6.6 4.903-13.766 10.749-21.31 17.727s-12.824 14.521-15.841 22.253c-3.017 7.92-4.526 16.595-4.526 25.836 0 24.327 10.749 44.317 32.248 59.78s49.408 23.196 83.542 23.196c15.087 0 30.362-2.074 46.014-6.223s29.042-8.863 40.168-13.955c11.126-5.28 21.687-10.938 31.493-17.161s16.784-11.126 20.933-14.332c4.149-3.206 6.789-5.469 7.732-6.412 4.715-3.583 9.429-4.903 14.521-3.772 5.469 0.377 9.429 3.206 12.446 8.675l43.562 78.639c4.337 7.166 3.394 13.955-2.64 20.367-2.074 2.074-4.903 4.715-8.109 7.543s-10.183 8.109-20.933 15.652c-10.749 7.543-22.253 14.332-34.133 20.178-12.069 5.846-27.722 11.881-46.768 18.104-19.235 6.035-39.036 10.183-59.403 12.446v94.857c0 5.092-1.697 9.241-4.903 12.446s-7.355 4.903-12.446 4.903h-72.793c-4.715 0-8.675-1.697-12.069-5.092-3.394-3.583-5.092-7.543-5.092-12.258v-96.931c-56.386-10.749-102.211-34.888-137.288-72.227-35.265-37.339-52.803-80.713-52.803-130.31 0-14.709 1.509-28.664 4.526-42.054 3.017-13.201 6.789-25.27 11.315-35.831s10.938-20.933 19.047-31.305c8.298-10.183 16.029-19.047 23.384-26.401s16.972-14.898 28.853-22.818c11.881-7.92 22.064-14.332 30.362-19.047 8.486-4.903 19.613-10.372 33.568-16.595s25.081-11.126 33.19-14.332c8.109-3.206 19.047-7.732 33.19-13.389 19.424-7.543 33.756-13.389 42.997-17.538 9.429-4.149 21.121-9.806 35.453-17.161s24.893-14.144 31.493-20.178c6.6-6.035 12.635-13.578 18.104-22.63s8.109-18.481 8.109-28.476c0-28.287-11.126-50.163-33.19-65.627s-47.711-23.196-76.753-23.196c-13.201 0-26.59 1.509-39.791 4.337-46.58 9.429-90.331 31.87-130.876 67.324l-1.131 1.131c-3.206 3.96-7.543 5.469-13.012 4.903-5.657-0.754-9.806-2.829-12.446-6.412l-55.443-72.604c-5.469-7.166-5.092-14.521 1.131-22.064 1.886-2.074 4.903-5.469 9.429-9.618 4.526-4.337 12.824-11.126 25.081-20.178 12.258-9.241 25.459-17.727 39.791-25.836s32.625-16.029 54.689-23.95c22.064-7.92 44.883-13.389 68.644-16.595v-94.291c0-4.715 1.697-8.675 5.092-12.069s7.355-5.092 12.069-5.092h72.604c5.092 0 9.241 1.697 12.446 4.903s4.903 7.355 4.903 12.446v94.291c57.14 9.241 103.531 33.756 139.173 73.547 35.642 39.602 53.557 86.936 53.557 141.814 0.377 17.161-1.886 34.133-6.6 49.786zM1017.777 343.337c-4.715 15.841-10.372 29.419-16.972 41.111s-16.218 23.007-28.476 34.133c-12.446 11.126-23.573 20.178-33.379 26.967s-23.384 14.521-40.734 22.818c-17.161 8.486-30.927 14.709-40.922 18.858s-24.516 9.806-43.562 16.972c-16.784 6.412-29.419 11.315-37.716 14.709s-19.047 8.298-32.625 14.521c-13.389 6.223-23.573 11.881-30.173 16.595-6.6 4.903-13.766 10.749-21.31 17.727s-12.824 14.521-15.841 22.253c-3.017 7.92-4.526 16.595-4.526 25.836 0 24.327 10.749 44.317 32.248 59.78s49.408 23.196 83.542 23.196c15.087 0 30.362-2.074 46.014-6.223s29.042-8.863 40.168-13.955c11.126-5.28 21.687-10.938 31.493-17.161s16.784-11.126 20.933-14.332c4.149-3.206 6.789-5.469 7.732-6.412 4.715-3.583 9.429-4.903 14.521-3.772 5.469 0.377 9.429 3.206 12.446 8.675l43.562 78.639c4.337 7.166 3.394 13.955-2.64 20.367-2.074 2.074-4.903 4.715-8.109 7.543s-10.183 8.109-20.933 15.652c-10.749 7.543-22.253 14.332-34.133 20.178-12.069 5.846-27.722 11.881-46.768 18.104-19.235 6.035-39.036 10.183-59.403 12.446v95.045c0 5.092-1.697 9.241-4.903 12.446s-7.355 4.903-12.446 4.903h-72.604c-4.715 0-8.675-1.697-12.069-5.092s-5.092-7.355-5.092-12.069v-96.931c-56.386-10.749-102.211-34.888-137.288-72.227-35.265-37.339-52.803-80.713-52.803-130.31 0-14.709 1.509-28.664 4.526-42.054 3.017-13.201 6.789-25.27 11.315-35.831s10.938-20.933 19.047-31.305c8.298-10.183 16.029-19.047 23.384-26.401s16.972-14.898 28.853-22.818c11.881-7.92 22.064-14.332 30.362-19.047 8.486-4.903 19.613-10.372 33.568-16.595s25.081-11.126 33.19-14.332c8.109-3.206 19.047-7.732 33.19-13.389 19.424-7.543 33.756-13.389 42.997-17.538 9.429-4.149 21.121-9.806 35.453-17.161s24.893-14.144 31.493-20.178c6.6-6.035 12.635-13.578 18.104-22.63s8.109-18.481 8.109-28.476c0-28.287-11.126-50.163-33.19-65.627s-47.711-23.196-76.753-23.196c-13.201 0-26.59 1.509-39.791 4.337-46.58 9.429-90.331 31.87-130.876 67.324l-1.131 1.131c-3.206 3.96-7.543 5.469-13.012 4.903-5.657-0.754-9.806-2.829-12.446-6.412l-55.443-72.604c-5.469-7.166-5.092-14.521 1.131-22.064 1.886-2.074 4.903-5.469 9.429-9.618 4.526-4.337 12.824-11.126 25.081-20.178 12.258-9.241 25.459-17.727 39.791-25.836s32.625-16.029 54.689-23.95c22.064-7.92 44.883-13.389 68.644-16.595v-94.291c0-4.715 1.697-8.675 5.092-12.069s7.355-5.092 12.069-5.092h72.604c5.092 0 9.241 1.697 12.446 4.903s4.903 7.355 4.903 12.446v94.291c57.14 9.241 103.531 33.756 139.173 73.547 35.642 39.602 53.557 86.936 53.557 141.814 0.189 16.972-2.074 33.945-6.789 49.597z" />
</font></defs></svg>