<?xml version="1.0" encoding="UTF-8"?>
<svg width="24px" height="24px" viewBox="0 0 24 24" version="1.1" xmlns="http://www.w3.org/2000/svg" xmlns:xlink="http://www.w3.org/1999/xlink">
    <!-- Generator: Sketch 52.3 (67297) - http://www.bohemiancoding.com/sketch -->
    <title>icon/information/order history</title>
    <desc>Created with Sketch.</desc>
    <defs>
        <path d="M4.24200913,9.44576661 C5.65004165,5.11228809 10.3694778,2.76184934 14.7831301,4.19593194 C16.984544,4.91121467 18.6938636,6.43293533 19.6799579,8.31637372 C18.6925965,6.23929619 16.8695683,4.54783043 14.4868755,3.77364662 C9.93957251,2.2961383 5.07728569,4.7177579 3.62664445,9.18237254 C2.17598912,13.6470306 4.68628361,18.4640991 9.23358664,19.9416074 C10.7442145,20.4324401 12.2894097,20.4924649 13.7329661,20.1907532 C12.4243848,20.4122986 11.0399176,20.3292016 9.68423615,19.888714 C5.27058376,18.4546314 2.8339907,13.7792017 4.24200913,9.44576661 Z M11.5,11.1337822 L11.5,7.5 C11.5,7.22385763 11.7238576,7 12,7 C12.2761424,7 12.5,7.22385763 12.5,7.5 L12.5,11.0784271 L14.2248737,9.35355339 C14.4201359,9.15829124 14.7367184,9.15829124 14.9319805,9.35355339 C15.1272427,9.54881554 15.1272427,9.86539803 14.9319805,10.0606602 L12.9999737,11.992667 C12.9999912,11.9951093 13,11.9975536 13,12 C13,12.5522847 12.5522847,13 12,13 C11.4477153,13 11,12.5522847 11,12 C11,11.6298588 11.2010993,11.3066869 11.5,11.1337822 Z M16.8019859,14.7945782 C18.3748592,12.0060651 17.4300191,8.44714047 14.6911245,6.84510783 C13.3252283,6.04654506 11.7708714,5.8853862 10.361094,6.27072115 C11.8705551,5.79395955 13.5631504,5.93316567 15.0416665,6.7978449 C17.8635041,8.44791527 18.8370064,12.115054 17.21594,14.9880204 C15.5953808,17.8607286 11.9943355,18.8522172 9.17275156,17.2018885 C8.23526735,16.6538451 7.50222368,15.882917 7,14.992411 C7.48193182,15.7749612 8.15359258,16.45188 8.99469043,16.9436211 C11.7335851,18.5453955 15.228859,17.5833495 16.8019859,14.7945782 Z" id="path-1"></path>
    </defs>
    <g id="icon/information/order-history" stroke="none" stroke-width="1" fill="none" fill-rule="evenodd">
        <g>
            <rect id="bounds" x="0" y="0" width="24" height="24"></rect>
            <mask id="mask-2" fill="white">
                <use xlink:href="#path-1"></use>
            </mask>
            <use id="Shape" fill="#454545" xlink:href="#path-1"></use>
        </g>
    </g>
</svg>