<?xml version="1.0" encoding="UTF-8"?>
<svg width="180px" height="180px" viewBox="0 0 180 180" version="1.1" xmlns="http://www.w3.org/2000/svg" xmlns:xlink="http://www.w3.org/1999/xlink">
    <!-- Generator: Sketch 58 (84663) - https://sketch.com -->
    <title>Group 19</title>
    <desc>Created with Sketch.</desc>
    <defs>
        <circle id="path-1" cx="71" cy="71" r="71"></circle>
        <filter x="-21.5%" y="-18.7%" width="143.0%" height="143.0%" filterUnits="objectBoundingBox" id="filter-2">
            <feOffset dx="0" dy="4" in="SourceAlpha" result="shadowOffsetOuter1"></feOffset>
            <feGaussianBlur stdDeviation="9.5" in="shadowOffsetOuter1" result="shadowBlurOuter1"></feGaussianBlur>
            <feColorMatrix values="0 0 0 0 0   0 0 0 0 0   0 0 0 0 0  0 0 0 0.0907998252 0" type="matrix" in="shadowBlurOuter1"></feColorMatrix>
        </filter>
    </defs>
    <g id="Page-1" stroke="none" stroke-width="1" fill="none" fill-rule="evenodd">
        <g id="GoDysh_Splash_V03_121219" transform="translate(-916.000000, -2798.000000)">
            <g id="Bitmap-Copy-2" transform="translate(801.000000, 2761.000000)">
                <g id="Group-21" transform="translate(134.000000, 52.000000)">
                    <g id="Group-19">
                        <g id="Oval-Copy">
                            <use fill="black" fill-opacity="1" filter="url(#filter-2)" xlink:href="#path-1"></use>
                            <use fill="#FFFFFF" fill-rule="evenodd" xlink:href="#path-1"></use>
                        </g>
                        <g id="online-order-(1)" transform="translate(41.000000, 34.000000)">
                            <path d="M18.5,54.6882712 L18.5,1.28244147 L53.3856822,1.28244147 L53.3856822,21.7871079 C50.6569461,21.8861505 49.2925781,23.1554375 49.2925781,25.5949688 C49.2925781,28.0345 50.6846354,29.2542656 53.46875,29.2542656 C50.6846354,29.1178594 49.2925781,30.5047188 49.2925781,33.4148438 C49.2925781,36.3249687 50.8606771,37.334474 53.996875,36.4433594 C50.8606771,36.871224 49.2925781,38.3027344 49.2925781,40.7378906 C49.2925781,43.1730469 50.6846354,44.1432292 53.46875,43.6484375 C49.9491319,44.6554688 48.5570747,46.1059896 49.2925781,48 C50.0280816,49.8940104 51.3924496,50.9800781 53.3856822,51.2582031 C53.3431441,53.5449152 51.978776,54.6882712 49.2925781,54.6882712 C46.6063802,54.6882712 36.3421875,54.6882712 18.5,54.6882712 Z" id="Path-10" fill="#F8CF40"></path>
                            <path d="M26.5,36.5 C27.6797361,29.2299792 30.7283472,25.5949687 35.6458333,25.5949687 C40.5633194,25.5949687 43.4837117,29.2299792 44.4070101,36.5 L26.5,36.5 Z" id="Path-24" fill="#FFFFFF"></path>
                            <circle id="Oval" fill="#FFFFFF" cx="36" cy="49" r="2"></circle>
                            <path d="M0.679729167,77.8720312 C0.8555,77.9585625 1.0435625,78 1.2279375,78 C1.67904167,78 2.1129375,77.7538125 2.32927083,77.3260312 L9.22120833,63.6589688 L33.9815417,72.1975313 C33.9827708,72.19875 33.9852292,72.19875 33.9876875,72.1999687 L35.1504792,72.6009375 L33.3177917,76.23525 C33.0141875,76.8373125 33.2600208,77.5697813 33.8672292,77.8708125 C34.043,77.9585625 34.2310625,78 34.4154375,78 C34.8665417,78 35.3004375,77.7538125 35.5167708,77.3260312 L37.9751042,72.4510312 C37.9861667,72.4290938 37.9837083,72.4071562 37.9935417,72.3864375 C38.0058333,72.3584062 38.0255,72.33525 38.0365625,72.306 C38.055,72.2535937 38.047625,72.1999687 38.0586875,72.1463437 C38.077125,72.0646875 38.0931042,71.98425 38.091875,71.9025937 C38.091875,71.8245937 38.077125,71.7514687 38.0636042,71.6746875 C38.047625,71.5979062 38.0341042,71.5235625 38.003375,71.4504375 C37.9726458,71.3773125 37.9320833,71.316375 37.8890625,71.2505625 C37.8460417,71.18475 37.8054792,71.1225937 37.7489375,71.0653125 C37.6923958,71.0080312 37.6260208,70.9641563 37.5596458,70.9178437 C37.5129375,70.887375 37.47975,70.8410625 37.4268958,70.8154687 C37.4010833,70.8032812 37.3740417,70.8045 37.3494583,70.7935312 C37.3236458,70.7837812 37.3076667,70.7630625 37.280625,70.7545312 L36.572625,70.5107812 L49.7124167,56.0625 L50.3958333,56.0625 C52.428875,56.0625 54.0833333,54.4220625 54.0833333,52.40625 C56.794875,52.40625 59,50.2198125 59,47.53125 C59,46.0675312 58.3325625,44.7683437 57.3000625,43.875 C58.3325625,42.9804375 59,41.68125 59,40.2175312 C59,38.7550313 58.3337917,37.4558437 57.3012917,36.5612813 C58.3337917,35.6667187 59,34.3675312 59,32.9050313 C59,31.4425312 58.3337917,30.1433437 57.3012917,29.2487812 C58.3337917,28.3554375 59,27.05625 59,25.59375 C59,22.9051875 56.794875,20.71875 54.0833333,20.71875 L54.0833333,3.65625 C54.0833333,1.6404375 52.428875,0 50.3958333,0 L20.8958333,0 C18.8627917,0 17.2083333,1.6404375 17.2083333,3.65625 L17.2083333,24.5090625 C15.6460625,22.9246875 13.4692083,21.9375 11.0625,21.9375 C10.3827708,21.9375 9.83333333,22.4835 9.83333333,23.15625 L9.83333333,61.2897187 L9.00733333,61.00575 C8.95202083,60.98625 8.89670833,60.9935625 8.84139583,60.9825938 C8.7615,60.96675 8.6840625,60.9509062 8.60416667,60.9509062 C8.52427083,60.9509062 8.4480625,60.9655312 8.370625,60.9801562 C8.2931875,60.996 8.2194375,61.0094062 8.1456875,61.039875 C8.07439583,61.0679063 8.01416667,61.1093438 7.94902083,61.1507812 C7.8801875,61.1934375 7.81627083,61.2360938 7.75604167,61.2921562 C7.6995,61.347 7.65647917,61.4115937 7.611,61.4774062 C7.5778125,61.5237187 7.53233333,61.5578438 7.50529167,61.61025 L0.130291667,76.23525 C-0.174541667,76.8385313 0.0725208333,77.5697813 0.679729167,77.8720313 L0.679729167,77.8720312 Z M54.0833333,49.96875 L52.8541667,49.96875 C51.4983958,49.96875 50.3958333,48.8755312 50.3958333,47.53125 C50.3958333,46.1894063 51.4959375,45.0974062 52.8480208,45.09375 C52.8504792,45.09375 52.8517083,45.0949687 52.8541667,45.0949687 C52.856625,45.0949687 52.8578542,45.09375 52.8603125,45.09375 L54.0833333,45.09375 C55.4391042,45.09375 56.5416667,46.1869687 56.5416667,47.53125 C56.5416667,48.8755312 55.4391042,49.96875 54.0833333,49.96875 Z M56.5416667,40.2175312 C56.5416667,41.5618125 55.4391042,42.6550312 54.0833333,42.6550312 C54.080875,42.6550312 54.0796458,42.65625 54.0771875,42.65625 L52.8541667,42.65625 C52.8517083,42.65625 52.8504792,42.65625 52.8480208,42.65625 C51.4959375,42.6538125 50.3958333,41.5618125 50.3958333,40.2199687 C50.3958333,38.8756875 51.4983958,37.7824687 52.8541667,37.7824687 C52.8590833,37.7824687 52.8615417,37.7800312 52.8664583,37.7800312 L54.0833333,37.7800312 C55.4391042,37.7800312 56.5416667,38.87325 56.5416667,40.2175312 Z M52.8541667,35.3425313 C52.8517083,35.3425313 52.84925,35.34375 52.8455625,35.34375 C51.4947083,35.338875 50.3958333,34.2480938 50.3958333,32.90625 C50.3958333,31.5619688 51.4983958,30.46875 52.8541667,30.46875 L54.0833333,30.46875 C54.0857917,30.46875 54.08825,30.4675313 54.0919375,30.4675313 C55.4427917,30.4724063 56.5416667,31.5631875 56.5416667,32.9050313 C56.5416667,34.2493125 55.4391042,35.3425313 54.0833333,35.3425313 L52.8541667,35.3425313 Z M56.5416667,25.59375 C56.5416667,26.9368125 55.4415625,28.0275938 54.0894792,28.03125 C54.0870208,28.03125 54.0857917,28.03125 54.0833333,28.03125 C54.0784167,28.03125 54.0759583,28.0336875 54.0710417,28.0336875 L52.8603125,28.0336875 C52.8578542,28.0324687 52.856625,28.03125 52.8541667,28.03125 C51.4983958,28.03125 50.3958333,26.9380313 50.3958333,25.59375 C50.3958333,24.2494687 51.4983958,23.15625 52.8541667,23.15625 L54.0833333,23.15625 C55.4391042,23.15625 56.5416667,24.2494687 56.5416667,25.59375 Z M19.6666667,3.65625 C19.6666667,2.98471875 20.2173333,2.4375 20.8958333,2.4375 L50.3958333,2.4375 C51.0743333,2.4375 51.625,2.98471875 51.625,3.65625 L51.625,20.8918125 C49.5096042,21.4365938 47.9375,23.3293125 47.9375,25.59375 C47.9375,27.0574688 48.6049375,28.3566563 49.6374375,29.25 C48.6049375,30.1445625 47.9375,31.44375 47.9375,32.90625 C47.9375,34.36875 48.6037083,35.6679375 49.6362083,36.5625 C48.6037083,37.4570625 47.9375,38.75625 47.9375,40.21875 C47.9375,41.68125 48.6037083,42.9804375 49.6362083,43.8737812 C48.6037083,44.7695625 47.9375,46.06875 47.9375,47.53125 C47.9375,49.7956875 49.5096042,51.6884062 51.625,52.2331875 L51.625,52.40625 C51.625,53.079 51.0743333,53.625 50.3958333,53.625 L20.8958333,53.625 C20.2173333,53.625 19.6666667,53.079 19.6666667,52.40625 L19.6666667,3.65625 Z M12.2916667,24.4980937 C15.0929375,25.0648125 17.2083333,27.5254687 17.2083333,30.46875 L17.2083333,52.40625 C17.2083333,54.4220625 18.8627917,56.0625 20.8958333,56.0625 L46.4035,56.0625 L34.050375,69.6430312 L12.2916667,62.1379687 L12.2916667,24.4980937 Z" id="Shape" fill="#333333" fill-rule="nonzero"></path>
                            <path d="M11.0870833,69.46875 C10.4085833,69.46875 9.86529167,70.0135312 9.86529167,70.6875 C9.86529167,71.3614688 10.420875,71.90625 11.1006042,71.90625 C11.7791042,71.90625 12.3297708,71.3614688 12.3297708,70.6875 C12.3297708,70.0135312 11.7791042,69.46875 11.1006042,69.46875 L11.0870833,69.46875 Z" id="Path" fill="#333333" fill-rule="nonzero"></path>
                            <path d="M35.6458333,45.09375 C33.6127917,45.09375 31.9583333,46.7341875 31.9583333,48.75 C31.9583333,50.7658125 33.6127917,52.40625 35.6458333,52.40625 C37.678875,52.40625 39.3333333,50.7658125 39.3333333,48.75 C39.3333333,46.7341875 37.678875,45.09375 35.6458333,45.09375 Z M35.6458333,49.96875 C34.9673333,49.96875 34.4166667,49.42275 34.4166667,48.75 C34.4166667,48.07725 34.9673333,47.53125 35.6458333,47.53125 C36.3243333,47.53125 36.875,48.07725 36.875,48.75 C36.875,49.42275 36.3243333,49.96875 35.6458333,49.96875 Z" id="Shape" fill="#333333" fill-rule="nonzero"></path>
                            <path d="M31.9952083,7.3125 C32.6737083,7.3125 33.224375,6.7665 33.224375,6.09375 C33.224375,5.421 32.6737083,4.875 31.9952083,4.875 L31.9829167,4.875 C31.3044167,4.875 30.761125,5.421 30.761125,6.09375 C30.761125,6.7665 31.3167083,7.3125 31.9952083,7.3125 Z" id="Path" fill="#333333" fill-rule="nonzero"></path>
                            <path d="M35.6458333,7.3125 L39.3333333,7.3125 C40.0130625,7.3125 40.5625,6.7665 40.5625,6.09375 C40.5625,5.421 40.0130625,4.875 39.3333333,4.875 L35.6458333,4.875 C34.9661042,4.875 34.4166667,5.421 34.4166667,6.09375 C34.4166667,6.7665 34.9661042,7.3125 35.6458333,7.3125 Z" id="Path" fill="#333333" fill-rule="nonzero"></path>
                            <path d="M25.8125,37.786125 L45.4791667,37.786125 C46.1588958,37.786125 46.7083333,37.240125 46.7083333,36.567375 C46.7083333,35.894625 46.1588958,35.348625 45.4791667,35.348625 L45.4791667,34.1286562 C45.4791667,29.7448125 42.5451458,26.0288437 38.5233125,24.8064375 C38.6437708,24.4810312 38.71875,24.1349062 38.71875,23.7692812 C38.71875,22.0898437 37.3408542,20.7224062 35.6458333,20.7224062 C33.9508125,20.7224062 32.5729167,22.0898437 32.5729167,23.7692812 C32.5729167,24.1349062 32.649125,24.4810312 32.7683542,24.8064375 C28.7465208,26.0288437 25.8125,29.7448125 25.8125,34.1286562 L25.8125,35.348625 C25.1327708,35.348625 24.5833333,35.894625 24.5833333,36.567375 C24.5833333,37.240125 25.1327708,37.786125 25.8125,37.786125 Z M35.03125,23.7692812 C35.03125,23.4329062 35.3078125,23.1599062 35.6458333,23.1599062 C35.9838542,23.1599062 36.2604167,23.4329062 36.2604167,23.7692812 C36.2604167,24.1056562 35.9838542,24.3786562 35.6458333,24.3786562 C35.3078125,24.3786562 35.03125,24.1056562 35.03125,23.7692812 Z M28.2708333,34.1286562 C28.2708333,30.0958125 31.5785208,26.8161562 35.6458333,26.8161562 C39.7131458,26.8161562 43.0208333,30.0958125 43.0208333,34.1286562 L43.0208333,35.348625 L28.2708333,35.348625 L28.2708333,34.1286562 Z" id="Shape" fill="#333333" fill-rule="nonzero"></path>
                            <path d="M29.5012292,23.161125 C30.1809583,23.161125 30.7303958,22.615125 30.7303958,21.942375 L30.7303958,15.84375 C30.7303958,15.171 30.1809583,14.625 29.5012292,14.625 C28.8215,14.625 28.2720625,15.171 28.2720625,15.84375 L28.2720625,21.942375 C28.2720625,22.615125 28.8215,23.161125 29.5012292,23.161125 Z" id="Path" fill="#FFFFFF" fill-rule="nonzero"></path>
                            <path d="M41.7928958,23.161125 C42.472625,23.161125 43.0220625,22.615125 43.0220625,21.942375 L43.0220625,15.84375 C43.0220625,15.171 42.472625,14.625 41.7928958,14.625 C41.1131667,14.625 40.5637292,15.171 40.5637292,15.84375 L40.5637292,21.942375 C40.5637292,22.615125 41.1131667,23.161125 41.7928958,23.161125 Z" id="Path" fill="#FFFFFF" fill-rule="nonzero"></path>
                            <path d="M35.6458333,19.5 C36.3255625,19.5 36.875,18.954 36.875,18.28125 L36.875,15.84375 C36.875,15.171 36.3255625,14.625 35.6458333,14.625 C34.9661042,14.625 34.4166667,15.171 34.4166667,15.84375 L34.4166667,18.28125 C34.4166667,18.954 34.9661042,19.5 35.6458333,19.5 Z" id="Path" fill="#FFFFFF" fill-rule="nonzero"></path>
                        </g>
                    </g>
                </g>
            </g>
        </g>
    </g>
</svg>