<?xml version="1.0" encoding="UTF-8"?>
<svg width="180px" height="180px" viewBox="0 0 180 180" version="1.1" xmlns="http://www.w3.org/2000/svg" xmlns:xlink="http://www.w3.org/1999/xlink">
    <!-- Generator: Sketch 58 (84663) - https://sketch.com -->
    <title>Group 19</title>
    <desc>Created with Sketch.</desc>
    <defs>
        <circle id="path-1" cx="71" cy="71" r="71"></circle>
        <filter x="-21.5%" y="-18.7%" width="143.0%" height="143.0%" filterUnits="objectBoundingBox" id="filter-2">
            <feOffset dx="0" dy="4" in="SourceAlpha" result="shadowOffsetOuter1"></feOffset>
            <feGaussianBlur stdDeviation="9.5" in="shadowOffsetOuter1" result="shadowBlurOuter1"></feGaussianBlur>
            <feColorMatrix values="0 0 0 0 0   0 0 0 0 0   0 0 0 0 0  0 0 0 0.0907998252 0" type="matrix" in="shadowBlurOuter1"></feColorMatrix>
        </filter>
    </defs>
    <g id="Page-1" stroke="none" stroke-width="1" fill="none" fill-rule="evenodd">
        <g id="GoDysh_Splash_V03_121219" transform="translate(-150.000000, -2798.000000)">
            <g id="Bitmap" transform="translate(0.000000, 2761.000000)">
                <g id="Group-20" transform="translate(169.000000, 52.000000)">
                    <g id="Group-19">
                        <g id="Oval-Copy">
                            <use fill="black" fill-opacity="1" filter="url(#filter-2)" xlink:href="#path-1"></use>
                            <use fill="#FFD542" fill-rule="evenodd" xlink:href="#path-1"></use>
                        </g>
                        <g id="handshake-(2)" transform="translate(30.000000, 31.000000)">
                            <path d="M27.7406453,36.5 C29.3673468,33.5552989 31.4616922,30.1195038 34.0236812,26.1926145 L44.3774262,23.5903296 L56.8513601,23.5903296 L66.7817006,17.5490746 L80.3147295,35.2077203 L72.1799966,43.5 L66.7817006,54.6504999 L47.3574551,35.2077203 L39.0000372,34.0877272 L34.0236812,41.9713664 C32.0767419,44.0095445 29.9823966,44.5190891 27.7406453,43.5 C26.1139437,41.7780344 26.1139437,39.4447011 27.7406453,36.5 Z" id="Path-9" fill="#FFFFFF"></path>
                            <rect id="Rectangle" fill="#FFFFFF" transform="translate(20.831005, 56.803223) rotate(-44.000000) translate(-20.831005, -56.803223) " x="15.3310049" y="53.8032225" width="11" height="6" rx="3"></rect>
                            <rect id="Rectangle-Copy" fill="#FFFFFF" transform="translate(26.831005, 62.803223) rotate(-44.000000) translate(-26.831005, -62.803223) " x="19.8310049" y="58.8032225" width="14" height="8" rx="4"></rect>
                            <rect id="Rectangle-Copy-3" fill="#FFFFFF" transform="translate(31.831005, 67.803223) rotate(-44.000000) translate(-31.831005, -67.803223) " x="24.8310049" y="63.8032225" width="14" height="8" rx="4"></rect>
                            <rect id="Rectangle-Copy-8" fill="#FFFFFF" transform="translate(37.831005, 73.803223) rotate(-44.000000) translate(-37.831005, -73.803223) " x="32.8310049" y="70.8032225" width="10" height="6" rx="3"></rect>
                            <path d="M81.6665752,34.3944849 L67.9686891,16.5744348 C67.4616837,15.9153594 66.5369609,15.7527792 65.83577,16.1992495 L56.9918981,21.8320312 L45.4575262,21.8320312 C45.3082968,21.8320312 45.1596918,21.863922 45.0160819,21.9058177 L36.0729319,24.4839659 L26.7932353,21.9420855 L17.7764072,16.1992495 C17.0870798,15.7602829 16.1792154,15.9091063 15.6665906,16.5456707 L0.515746752,35.3399518 C-0.0287220585,36.0152853 0.0611902222,37.0013973 0.718049544,37.5673018 L8.65905214,44.4113065 L15.7833517,54.0260546 C13.6997593,56.2490272 13.7403449,59.7551337 15.9082299,61.9268311 C16.8691672,62.8885561 18.0911002,63.4319494 19.3479989,63.5582618 C19.3042915,63.8434026 19.2818134,64.1329205 19.2818134,64.4268157 C19.2818134,65.9438148 19.8718627,67.3701442 20.9426931,68.4425489 C22.0141477,69.5155786 23.4383832,70.1064955 24.9531555,70.1064955 C24.9737603,70.1064955 24.9937408,70.1052448 25.0137213,70.1046196 C25.013097,70.1433888 25.0112238,70.1815326 25.0112238,70.2203017 C25.0112238,71.7373009 25.6012731,73.1636302 26.6721034,74.2366601 C27.7435581,75.3090647 29.1677935,75.8999815 30.6825658,75.8999815 C30.981649,75.8999815 31.2776102,75.8755944 31.5679521,75.8305722 C31.690957,77.0936959 32.2348013,78.3230531 33.1988608,79.2885299 C34.3040327,80.3959516 35.7563657,80.94935 37.2086988,80.94935 C38.661032,80.94935 40.113365,80.3959516 41.2191612,79.2885299 L42.0864401,78.4199758 L42.45046,78.713871 C43.5468903,79.7775213 44.9705014,80.3090338 46.3941125,80.3090338 C47.8464455,80.3090338 49.2987787,79.7556354 50.4039504,78.6482137 C51.5322247,77.5182806 52.0848105,76.0269192 52.0617081,74.5430613 C53.5427632,74.5655726 55.0325596,74.0127995 56.1608339,72.8834918 C57.2878595,71.7541842 57.8404453,70.2640733 57.8185916,68.7808409 C59.3614614,68.8052278 60.8250335,68.2118098 61.9170931,67.1181448 C63.0453674,65.9882117 63.5979532,64.4968503 63.5748508,63.0129926 C65.0571546,63.0355037 66.5457023,62.4827307 67.6739766,61.3527977 C69.599598,59.4243454 69.8474811,56.4434983 68.4194992,54.2430366 L73.6212993,43.3326488 L81.4417945,36.5930707 C82.0880391,36.0359205 82.1866929,35.0704437 81.6665752,34.3944849 L81.6665752,34.3944849 Z M17.2631579,19.6815943 L23.7468324,23.8105084 L9.64246775,41.0190064 L3.99048189,36.1472255 L17.2631579,19.6815943 Z M18.1778904,56.1671119 L20.1347314,54.207394 C20.1940486,54.1479897 20.2564875,54.091712 20.3201754,54.039186 C20.702927,53.7265316 21.1662251,53.5401897 21.6569962,53.4957927 C21.6707329,53.494542 21.6850937,53.494542 21.6988304,53.4939167 C21.7687622,53.488289 21.838694,53.4845371 21.9092501,53.4850945 C22.5798459,53.494542 23.2029879,53.7690526 23.6650371,54.2574187 C24.5716526,55.2172678 24.5229502,56.7855422 23.5563932,57.7535203 L21.6588694,59.6538337 C20.6991807,60.6149333 19.1375791,60.6149333 18.1778904,59.6538337 C17.2182018,58.6921087 17.2182018,57.1282115 18.1778904,56.1671119 Z M23.2123538,66.1695514 C22.7471827,65.7043216 22.4911823,65.0852658 22.4911823,64.4268157 C22.4911823,63.7683656 22.7471827,63.1493098 23.2123538,62.6834548 L27.0067769,58.8834533 C27.7335678,58.1555939 28.8762031,57.9561203 29.8052967,58.3994642 C30.7631122,58.856565 31.3019615,59.8977041 31.1614736,60.9450963 C31.0865467,61.5041225 30.8268001,62.0306324 30.4284387,62.4302048 L26.6939571,66.1695514 C26.228786,66.6354064 25.610639,66.8917831 24.9531555,66.8917831 C24.2956719,66.8917831 23.6775249,66.6354064 23.2123538,66.1695514 Z M28.9417641,71.9630373 C28.476593,71.4978076 28.2205927,70.8787519 28.2205927,70.2203017 C28.2205927,69.5618515 28.476593,68.9427959 28.9417641,68.4769407 L32.7355629,64.6769392 C33.5129294,63.8990551 34.759838,63.7314723 35.7114095,64.2861213 C36.5805616,64.7926213 37.0357426,65.7868624 36.8865132,66.7773515 C36.8047179,67.3219955 36.5462202,67.8341233 36.1572247,68.2236907 L32.4233674,71.9630373 C31.9581963,72.4288923 31.3400493,72.685269 30.6825658,72.685269 C30.0250823,72.685269 29.4069353,72.4288923 28.9417641,71.9630373 Z M35.4678972,77.0155324 C34.5082085,76.0544328 34.5082085,74.4905355 35.4678972,73.5294358 L37.424738,71.5697181 C37.4840552,71.5103137 37.5458699,71.4546613 37.6095577,71.4021354 C37.6114309,71.4008847 37.6126797,71.3996341 37.6139284,71.3983834 C37.9323679,71.1395057 38.306378,70.966295 38.7053636,70.8906327 C38.7147295,70.8893821 38.7240954,70.8881314 38.7334612,70.8868809 C38.8021442,70.8743747 38.872076,70.8643698 38.9420078,70.8581166 C38.9701053,70.8556154 38.9982029,70.8556154 39.026925,70.8537396 C39.0843689,70.8506129 39.1411885,70.8468611 39.1992568,70.8474864 C39.8692282,70.8568661 40.4929946,71.1307513 40.9550439,71.6197428 C41.0118635,71.6797725 41.0649366,71.7423033 41.1136392,71.80671 C41.8516691,72.7728122 41.7523909,74.2078958 40.8364095,75.1258493 L38.9488761,77.0161576 C37.9891873,77.9772574 36.4275859,77.9766319 35.4678972,77.0155324 L35.4678972,77.0155324 Z M65.4043159,59.0798002 C64.4446272,60.0415252 62.8830257,60.0408997 61.9233371,59.0798002 C61.8883712,59.0447829 61.8515321,59.0122668 61.8140686,58.9816267 L51.4953856,48.5389699 C50.8716191,47.9080333 49.8557353,47.9030309 49.225725,48.5277144 C48.5957145,49.1517725 48.5907194,50.1691499 49.2138615,50.8000865 L59.6443104,61.3546736 C59.6455593,61.3559242 59.646808,61.3571749 59.6480567,61.3584254 C60.6077455,62.3195252 60.6077455,63.8840477 59.6480567,64.8451473 C59.1828856,65.3110024 58.5647387,65.567379 57.9072552,65.567379 C57.2491472,65.567379 56.6310002,65.3110024 56.1664534,64.8451473 L49.1888859,57.7847856 C48.5657437,57.1538491 47.5498598,57.1488466 46.9198495,57.7729049 C46.2898392,58.3975884 46.2848441,59.4149657 46.9079862,60.0459022 L53.7787828,66.9980855 C53.8137487,67.0418572 53.8512123,67.0837527 53.8911733,67.1237725 C54.850862,68.0848721 54.850862,69.6493948 53.8911733,70.6104943 C52.9308601,71.5715939 51.3686343,71.5709686 50.4089455,70.6098691 L46.6007857,66.7560909 C45.9770194,66.1251544 44.9611355,66.1195267 44.3311252,66.74421 C43.7011148,67.3682683 43.6961197,68.3856457 44.3192617,69.0165823 L48.0212749,72.7621819 C48.0562408,72.8059536 48.0937043,72.8484746 48.1342896,72.8884943 C49.0939785,73.8495939 49.0939785,75.4141166 48.1342896,76.3752162 C47.174601,77.3369412 45.6129995,77.3363157 44.6533108,76.3752162 C44.5427935,76.2645365 44.4129202,76.1794945 44.2892909,76.0844476 C44.1843933,76.0044081 44.1569201,75.9487555 44.2093689,75.8211926 C44.2624421,75.6917537 44.3417398,75.5748209 44.3948129,75.4447567 C44.4535058,75.299685 44.5009595,75.1502362 44.5471643,75.0001621 C44.7931744,74.20602 44.8656037,73.3518481 44.7550866,72.5276912 C44.5427935,70.9462851 43.674266,69.5193305 42.3580501,68.6163846 C41.6468689,68.129269 40.8239219,67.8097362 39.9710039,67.6896769 C40.3843507,65.8637752 39.88796,63.8840477 38.5967197,62.517748 C37.5340064,61.3934427 36.098532,60.7625062 34.5544133,60.7412456 C34.4982182,60.7406203 34.442023,60.7406203 34.3852035,60.7412456 C34.4195449,59.2655168 33.8838177,57.7991678 32.8679337,56.7242619 C31.8045961,55.5999568 30.3691217,54.9690202 28.8256275,54.9477597 C28.3667002,54.9415066 27.9034021,54.9902807 27.4563383,55.0934566 C27.2652748,53.7621742 26.5953033,52.5303159 25.5806682,51.6492559 C24.572277,50.7750741 23.3041393,50.2898345 21.9535819,50.2710751 C20.531844,50.25044 19.1350817,50.7756994 18.0792368,51.7305459 L11.8759137,43.3595371 L26.7164352,25.2530956 L31.4461958,26.5487354 L25.2690973,37.464751 C24.5223257,38.7847779 24.3337597,40.3167846 24.7377407,41.7787564 C25.1417214,43.2413538 26.0895468,44.4582046 27.4076359,45.2060741 C27.4900555,45.2529721 27.5730994,45.2973691 27.6573922,45.3398901 C27.663636,45.3430166 27.66988,45.3461432 27.6767484,45.3492697 C27.898407,45.4599494 28.1263098,45.5549963 28.3573343,45.6350358 C29.4331598,46.0083451 30.5951511,46.0489902 31.7159327,45.738837 C33.1757584,45.3342623 34.390823,44.3844182 35.1375945,43.0650168 L39.1518031,35.9708884 L46.3191856,36.4798898 L65.4049404,55.5930783 C66.3640047,56.5548033 66.3640047,58.1187006 65.4043159,59.0798002 L65.4043159,59.0798002 Z M66.0692922,51.7130373 L48.1648849,33.7829328 C48.1311677,33.748541 48.0955775,33.7160249 48.0587384,33.6853848 C47.800865,33.4702786 47.4811769,33.3402144 47.1440058,33.3164526 L38.3681926,32.6930197 C37.7612847,32.651124 37.1581232,32.9744086 36.8584156,33.5040452 L32.3453186,41.4804842 C32.0212597,42.053267 31.4936495,42.4653456 30.8598928,42.6410573 C30.2267604,42.816769 29.5624085,42.7342283 28.9898422,42.4096931 C28.4179002,42.0851578 28.0064267,41.5567718 27.8309728,40.9220835 C27.655519,40.287395 27.7373142,39.6220665 28.0619975,39.0492836 L34.0867446,28.4009002 L36.5281129,27.6974278 C36.544347,27.6924254 36.5599567,27.6861722 36.576191,27.6811697 L45.6879264,25.0461185 L56.6971857,25.0461185 L70.4412768,42.5435091 L66.0692922,51.7130373 Z M72.5436008,40.0210134 L59.8335009,23.8311435 L66.3202973,19.6997283 L78.1968354,35.1492327 L72.5436008,40.0210134 Z" id="Shape" fill="#000000" fill-rule="nonzero"></path>
                            <path d="M49.7408474,18.814291 C50.1516965,18.814291 50.5625457,18.6573385 50.8759898,18.3434335 L61.8377954,7.36551233 C62.4646838,6.7377023 62.4646838,5.72032485 61.8377954,5.09251482 C61.210907,4.46470479 60.1950232,4.46470479 59.5681347,5.09251482 L48.6063293,16.070436 C47.9794407,16.698246 47.9794407,17.7156235 48.6063293,18.3434335 C48.9197734,18.6573385 49.3306226,18.814291 49.7408474,18.814291 Z" id="Path" fill="#FFFFFF" fill-rule="nonzero"></path>
                            <path d="M31.2838542,18.3434335 C31.5972983,18.6573385 32.0081476,18.814291 32.4189967,18.814291 C32.8292214,18.814291 33.2400707,18.6573385 33.5535148,18.3434335 C34.1804033,17.7156235 34.1804033,16.698246 33.5535148,16.070436 L22.5917094,5.09251482 C21.9648208,4.46470479 20.9489371,4.46470479 20.3220487,5.09251482 C19.6951602,5.72032485 19.6951602,6.7377023 20.3220487,7.36551233 L31.2838542,18.3434335 Z" id="Path" fill="#FFFFFF" fill-rule="nonzero"></path>
                            <path d="M41.079922,18.814291 C41.9659327,18.814291 42.6846064,18.0945605 42.6846064,17.2072475 L42.6846064,8.12213589 C42.6846064,7.23482267 41.9659327,6.51509237 41.079922,6.51509237 C40.1939114,6.51509237 39.4752377,7.23482267 39.4752377,8.12213589 L39.4752377,17.2072475 C39.4752377,18.0945605 40.1939114,18.814291 41.079922,18.814291 Z" id="Path" fill="#FFFFFF" fill-rule="nonzero"></path>
                            <path d="M39.598867,2.29738443 C39.8536184,2.91581495 40.4886239,3.32164032 41.1585954,3.28662302 C41.8204495,3.252231 42.4017574,2.8045099 42.6065576,2.17357337 C42.8119823,1.53763437 42.5884503,0.812901433 42.0564693,0.407701334 C41.5138737,-0.00625308794 40.757112,-0.0293895534 40.1895408,0.346420992 C39.5564084,0.765377964 39.3110228,1.59953998 39.598867,2.29738443 Z" id="Path" fill="#FFFFFF" fill-rule="nonzero"></path>
                        </g>
                    </g>
                </g>
            </g>
        </g>
    </g>
</svg>