<?xml version="1.0" encoding="UTF-8"?>
<svg width="18px" height="13px" viewBox="0 0 18 13" version="1.1" xmlns="http://www.w3.org/2000/svg" xmlns:xlink="http://www.w3.org/1999/xlink">
    <!-- Generator: Sketch 55.2 (78181) - https://sketchapp.com -->
    <title>pull-down</title>
    <desc>Created with Sketch.</desc>
    <g id="24.-B2B:-Backup" stroke="none" stroke-width="1" fill="none" fill-rule="evenodd">
        <g id="Design-Elements" transform="translate(-538.000000, -451.000000)" fill="#658258">
            <g id="timezone" transform="translate(180.000000, 398.000000)">
                <g id="pull-down" transform="translate(357.000000, 53.000000)">
                    <g id="Group-5">
                        <g transform="translate(0.688235, 0.000000)">
                            <polygon id="Triangle" transform="translate(8.871517, 6.506897) scale(1, -1) translate(-8.871517, -6.506897) " points="8.87151703 -1.42108547e-14 17.4312693 13.0137931 0.311764706 13.0137931"></polygon>
                        </g>
                    </g>
                </g>
            </g>
        </g>
    </g>
</svg>