<?xml version="1.0" encoding="UTF-8"?>
<svg width="278px" height="271px" viewBox="0 0 278 271" version="1.1" xmlns="http://www.w3.org/2000/svg" xmlns:xlink="http://www.w3.org/1999/xlink">
    <!-- Generator: Sketch 58 (84663) - https://sketch.com -->
    <title>Group 36</title>
    <desc>Created with Sketch.</desc>
    <defs>
        <circle id="path-1" cx="140.5" cy="139.5" r="98.5"></circle>
        <filter x="-17.0%" y="-15.0%" width="134.0%" height="134.0%" filterUnits="objectBoundingBox" id="filter-2">
            <feOffset dx="0" dy="4" in="SourceAlpha" result="shadowOffsetOuter1"></feOffset>
            <feGaussianBlur stdDeviation="10.5" in="shadowOffsetOuter1" result="shadowBlurOuter1"></feGaussianBlur>
            <feColorMatrix values="0 0 0 0 0   0 0 0 0 0   0 0 0 0 0  0 0 0 0.0907998252 0" type="matrix" in="shadowBlurOuter1"></feColorMatrix>
        </filter>
        <path d="M140,254 C202.960461,254 254,202.960461 254,140 C254,77.0395385 202.960461,26 140,26 C77.0395385,26 26,77.0395385 26,140" id="path-3"></path>
        <filter x="-16.7%" y="-14.9%" width="133.3%" height="133.3%" filterUnits="objectBoundingBox" id="filter-4">
            <feOffset dx="0" dy="4" in="SourceAlpha" result="shadowOffsetOuter1"></feOffset>
            <feMorphology radius="1.5" operator="erode" in="SourceAlpha" result="shadowInner"></feMorphology>
            <feOffset dx="0" dy="4" in="shadowInner" result="shadowInner"></feOffset>
            <feComposite in="shadowOffsetOuter1" in2="shadowInner" operator="out" result="shadowOffsetOuter1"></feComposite>
            <feGaussianBlur stdDeviation="12" in="shadowOffsetOuter1" result="shadowBlurOuter1"></feGaussianBlur>
            <feColorMatrix values="0 0 0 0 0   0 0 0 0 0   0 0 0 0 0  0 0 0 0.0907998252 0" type="matrix" in="shadowBlurOuter1"></feColorMatrix>
        </filter>
    </defs>
    <g id="Page-1" stroke="none" stroke-width="1" fill="none" fill-rule="evenodd">
        <g id="GoDysh_Splash_V03_121219" transform="translate(-657.000000, -1337.000000)">
            <g id="Group-6" transform="translate(328.000000, 1229.000000)">
                <g id="Group-4-Copy-5" transform="translate(332.000000, 101.000000)">
                    <g id="Group-36">
                        <g id="Oval">
                            <use fill="black" fill-opacity="1" filter="url(#filter-2)" xlink:href="#path-1"></use>
                            <use fill="#FFFFFF" fill-rule="evenodd" xlink:href="#path-1"></use>
                        </g>
                        <g id="Shape" transform="translate(140.000000, 140.000000) rotate(-255.000000) translate(-140.000000, -140.000000) ">
                            <use fill="black" fill-opacity="1" filter="url(#filter-4)" xlink:href="#path-3"></use>
                            <path stroke="#50783F" stroke-width="1.5" d="M140.310244,253.249584 C202.71383,253.082247 253.25,202.442801 253.25,140 C253.25,77.4537521 202.546248,26.75 140,26.75 C77.5571993,26.75 26.9177535,77.2861697 26.7504159,139.689756 L140.310244,253.249584 Z" stroke-linejoin="square"></path>
                        </g>
                        <g id="rate" transform="translate(92.000000, 89.000000)">
                            <polygon id="Path-13" fill="#FFD542" points="14 39.8745915 15.4854151 33.3504987 11.2854576 28.613263 17.5 27.0450386 20.6332946 21.289649 24.0603524 27.0450386 30.2342216 28.613263 26.0233949 33.3504987 27.2465661 39.8745915 20.6332946 37.3052609"></polygon>
                            <polygon id="Path-13-Copy-2" fill="#FFD542" points="71 39.8745915 72.4854151 33.3504987 68.2854576 28.613263 74.5 27.0450386 77.6332946 21.289649 81.0603524 27.0450386 87.2342216 28.613263 83.0233949 33.3504987 84.2465661 39.8745915 77.6332946 37.3052609"></polygon>
                            <polygon id="Path-13-Copy" fill="#FFD542" points="35.5870215 39 38.6442757 25.6604092 30 15.9743445 42.7906576 12.7678493 49.2395473 1 56.293055 12.7678493 69 15.9743445 60.3333533 25.6604092 62.850862 39 54.6108975 35.8197034 53.1105909 26.1940781 49.5 23.9219883 46.8371117 26.1940781 45.7735628 35.0802704"></polygon>
                            <path d="M71.2692116,51.756832 L69.1751369,51.756832 C68.5356017,49.6813711 66.6044481,48.1878281 64.3450622,48.1878281 L62.0163651,48.1878281 C61.3796183,46.1099766 59.4544398,44.6190234 57.1848963,44.6190234 L55.3674689,44.6190234 L55.2061411,38.1569648 L58.5755021,39.9324023 C59.6283154,40.4868281 60.8800996,40.3973789 61.8430871,39.6983203 C62.8078672,38.9980664 63.2820913,37.8326367 63.0809295,36.6568477 L61.4007303,26.8379531 C61.304332,26.2747617 61.4903568,25.7002148 61.8984564,25.3015781 L69.0158008,18.3480469 C69.8680498,17.5155117 70.1683983,16.2943008 69.7997344,15.1607461 C69.4314689,14.0285859 68.471668,13.2187617 67.2947718,13.0472344 L57.458556,11.6148516 C56.8962988,11.5329727 56.4101245,11.1785625 56.1581743,10.667168 L51.7595021,1.73380078 C51.2326971,0.664195312 50.1661411,0 48.9753029,0 C47.7844647,0 46.7177095,0.664394531 46.1911037,1.73380078 L41.7922324,10.6669687 C41.5404813,11.1785625 41.0543071,11.5327734 40.4918506,11.6146523 L30.6556349,13.0470352 C29.4785394,13.2185625 28.5189378,14.0283867 28.1506722,15.1605469 C27.7820083,16.2941016 28.0823568,17.5153125 28.9344066,18.3478477 L36.0519502,25.3013789 C36.4600498,25.7002148 36.6460747,26.2745625 36.5496763,26.8379531 L34.8694772,36.6566484 C34.6681162,37.8326367 35.1423402,38.9980664 36.1071203,39.6983203 C37.0699087,40.3973789 38.3220913,40.4870273 39.3747054,39.9324023 L44.6274191,37.1646563 L44.0585892,59.956875 C44.0235353,61.3623633 42.8984232,62.4632461 41.4974606,62.4632461 C40.0849461,62.4632461 38.9355353,61.3099688 38.9355353,59.8925273 L38.9355353,50.1150703 C38.9355353,47.1359531 37.7777593,44.3349375 35.6757178,42.228 C34.6424232,41.1924609 33.1255436,40.8021914 31.7166141,41.2095937 C30.0149046,41.7016641 28.8264564,43.3171289 28.8264564,45.1379883 L28.8264564,45.3330234 C28.8264564,45.8011875 28.8027552,46.2749297 28.7563485,46.7409023 L27.3352697,60.9838477 C27.1311203,63.0298242 27.2797012,65.0785898 27.7774274,67.0733672 C28.5581743,70.203293 30.1740415,73.0636758 32.4503568,75.3451289 L33.1289295,76.0252617 C35.6151701,78.5172891 37.1860249,81.7585781 37.6112531,85.2369375 C36.2094938,85.6660547 35.1871535,86.9737266 35.1871535,88.5160781 L35.1871535,91.4424023 C33.8134772,91.8884531 32.8174274,93.1821797 32.8174274,94.7044102 L32.8174274,98.572043 C32.8174274,100.46223 34.3532282,102 36.2407635,102 L67.1121328,102 C68.9998672,102 70.5354689,100.46223 70.5354689,98.572043 L70.5354689,94.7044102 C70.5354689,93.1819805 69.5394191,91.8882539 68.1657427,91.4424023 L68.1657427,88.5160781 C68.1657427,86.9408555 67.0993859,85.6104727 65.6514191,85.2108398 C65.7653444,82.0157695 66.8669544,78.8768789 68.7823734,76.3171172 C70.0753859,74.589293 71.2933112,72.7740117 72.4012946,70.9228711 L72.4477012,70.845375 C74.9835353,66.6093867 76.323751,61.7594062 76.323751,56.8195781 C76.323751,54.0279258 74.0561992,51.7566328 71.2692116,51.756832 Z M37.9819087,37.2883711 C37.9554191,37.3025156 37.9191701,37.3216406 37.8614108,37.2798047 C37.8010622,37.2357773 37.8086307,37.1907539 37.8138091,37.1608711 L39.4940083,27.3421758 C39.7561162,25.8107812 39.2496266,24.248707 38.1390539,23.1637617 L31.0215104,16.2102305 C31,16.1891133 30.9677344,16.1576367 30.9912365,16.0851211 C31.0141411,16.0147969 31.0571618,16.0086211 31.0856432,16.0044375 L40.9218589,14.5720547 C42.4580581,14.3481328 43.7851286,13.3821211 44.4718672,11.9875898 L48.8707386,3.05422266 C48.8842822,3.02633203 48.9032033,2.98828125 48.9749046,2.98828125 C49.0466058,2.98828125 49.065527,3.02633203 49.0790705,3.05442187 L53.4777427,11.9875898 C54.1644813,13.3821211 55.4915519,14.3481328 57.0279502,14.5720547 L66.864166,16.0044375 C66.8926473,16.0084219 66.935668,16.0147969 66.9585726,16.0851211 C66.9822739,16.1576367 66.9498091,16.1893125 66.9282988,16.2102305 L59.8107552,23.1637617 C58.7001826,24.2489062 58.1936929,25.8107812 58.4558008,27.3421758 L60.136,37.1608711 C60.1411784,37.1907539 60.1489461,37.2357773 60.0883983,37.2798047 C60.0308382,37.3216406 59.9941909,37.3023164 59.9679004,37.2883711 L55.1206971,34.7343867 L54.9928299,29.6138672 C54.9661411,28.549043 54.7823071,27.4965703 54.4461079,26.4855352 C53.7936266,24.5240273 51.9684315,23.2059961 49.9042324,23.2059961 C47.839834,23.2059961 46.014639,24.5240273 45.3621577,26.4857344 C45.0261577,27.4963711 44.8421245,28.5488437 44.8156349,29.6138672 L44.7124647,33.7420781 L37.9819087,37.2883711 Z M67.1117344,94.2647344 C67.3521328,94.2647344 67.5475187,94.4619609 67.5475187,94.7044102 L67.5475187,98.572043 C67.5475187,98.8144922 67.3519336,99.0117188 67.1117344,99.0117188 L36.2403651,99.0117188 C35.9999668,99.0117188 35.8045809,98.8144922 35.8045809,98.572043 L35.8045809,94.7044102 C35.8045809,94.4619609 36.000166,94.2647344 36.2403651,94.2647344 L55.4150705,94.2647344 C56.2400332,94.2647344 56.9088465,93.5957578 56.9088465,92.7705938 C56.9088465,91.9454297 56.2400332,91.2764531 55.4150705,91.2764531 L38.1745062,91.2764531 L38.1745062,88.5162773 C38.1745062,88.2738281 38.3700913,88.0766016 38.6102905,88.0766016 L64.7418091,88.0766016 C64.9822075,88.0766016 65.1775934,88.2738281 65.1775934,88.5162773 L65.1775934,91.2764531 L61.0589544,91.2764531 C60.2339917,91.2764531 59.5651784,91.9454297 59.5651784,92.7705938 C59.5651784,93.5957578 60.2339917,94.2647344 61.0589544,94.2647344 L67.1117344,94.2647344 Z M69.8845809,69.309 L69.8381743,69.3864961 C68.7819751,71.1511758 67.6218091,72.8803945 66.3899419,74.5265391 C64.1148216,77.5672148 62.8046805,81.2938008 62.6658589,85.0883203 L40.6017925,85.0883203 C40.1351369,80.8692656 38.2529793,76.9307109 35.2437178,73.9145391 L34.5651452,73.2344063 C32.6708382,71.3356523 31.3260415,68.9551875 30.6761494,66.3498047 C30.2620747,64.6893164 30.1379917,62.9838047 30.308083,61.2804844 L31.7291618,47.0377383 C31.7853278,46.4735508 31.8140083,45.8998008 31.8140083,45.3328242 L31.8140083,45.1377891 C31.8140083,44.6397422 32.1151535,44.2048477 32.546556,44.0801367 C32.9084481,43.9753477 33.2974274,44.0743594 33.5611286,44.3387227 C35.1003154,45.8816719 35.9479834,47.9330273 35.9479834,50.1150703 L35.9479834,59.8925273 C35.9479834,62.957707 38.4374108,65.4515273 41.4974606,65.4515273 C44.5324149,65.4515273 46.9692614,63.0706641 47.0451452,60.0313828 L47.8025892,29.688375 C47.8217095,28.9189922 47.954556,28.1587734 48.1973444,27.4288359 C48.4429212,26.690332 49.1288631,26.1940781 49.9044315,26.1940781 C50.68,26.1940781 51.3659419,26.690332 51.6115187,27.4288359 C51.8543071,28.1589727 51.9873527,28.9191914 52.006473,29.688375 L52.417361,46.1502188 C52.417361,46.1520117 52.417361,46.1536055 52.417361,46.1553984 L52.7290622,58.6412344 C52.7495768,59.4661992 53.435917,60.1188398 54.2596846,60.0977227 C55.0846473,60.0772031 55.7365311,59.3916914 55.7158174,58.5667266 L55.4421577,47.6071055 L57.1848963,47.6071055 C58.270971,47.6071055 59.164249,48.4438242 59.2459087,49.5231914 C59.2461079,49.5363398 59.2463071,49.5492891 59.2469046,49.5624375 L59.6705394,60.4465547 C59.7026058,61.2711211 60.3931286,61.9143984 61.221278,61.8813281 C62.0456432,61.8492539 62.6877676,61.1547773 62.6557012,60.3302109 L62.2993859,51.1759102 L64.3448631,51.1759102 C65.3966805,51.1759102 66.2746224,51.9691992 66.3973112,53.0043398 C66.3961162,53.0455781 66.3965145,53.0874141 66.3989046,53.1294492 L66.9010124,62.2548633 C66.9462241,63.078832 67.6500913,63.7105547 68.4746556,63.6647344 C69.2984232,63.6193125 69.9295934,62.9146758 69.8841826,62.090707 L69.4800664,54.7449141 L71.2692116,54.7449141 C72.4090622,54.7449141 73.3361992,55.6756641 73.3361992,56.8195781 C73.3361992,61.2187266 72.1423734,65.5379883 69.8845809,69.309 Z" id="Shape" fill="#333333" fill-rule="nonzero"></path>
                            <path d="M28.3078174,38.672543 L27.4830539,33.8522461 C27.4778755,33.8219648 27.4876349,33.7914844 27.5091452,33.7703672 L31.0033859,30.3565547 C31.6301743,29.7441562 31.8510539,28.8458789 31.5799834,28.0123477 C31.309112,27.1794141 30.6028548,26.5835508 29.7366639,26.4574453 L24.9077842,25.7542031 C24.8795021,25.7502187 24.854805,25.7318906 24.8418589,25.7055937 L22.6824564,21.3199922 C22.2950705,20.5330781 21.5099419,20.0441953 20.6333942,20.0441953 C19.7568465,20.0441953 18.9717178,20.5328789 18.584332,21.319793 L16.4247303,25.7053945 C16.4115851,25.7318906 16.3870871,25.7500195 16.358805,25.7542031 L11.5299253,26.4574453 C10.6637344,26.58375 9.95747718,27.1794141 9.68660581,28.0123477 C9.41553527,28.8458789 9.63641494,29.7441562 10.2632033,30.3565547 L13.757444,33.7703672 C13.7789544,33.7914844 13.7887137,33.8219648 13.7835353,33.8522461 L12.9585726,38.672543 C12.8105892,39.5371523 13.1593361,40.3943906 13.8689793,40.9095703 C14.5776266,41.4239531 15.4993859,41.4900937 16.2743568,41.0818945 L20.5937593,38.8058203 C20.6182573,38.7928711 20.6477344,38.7928711 20.6726307,38.8060195 L24.9920332,41.0818945 C25.3296266,41.2597969 25.6947054,41.3474722 26.0581909,41.3474722 C26.5292282,41.3474722 26.997278,41.199832 27.3974108,40.9093711 C28.1070539,40.3941914 28.4558008,39.5369531 28.3078174,38.672543 Z M25.4216432,31.6325508 C24.6976598,32.3397773 24.3674357,33.3581836 24.5383237,34.3562695 L25.1230871,37.7732695 L22.0656266,36.1621875 C21.1687635,35.6894414 20.0980249,35.6896406 19.2015602,36.1621875 L16.1439004,37.7732695 L16.7286639,34.3564687 C16.8995519,33.3583828 16.5693278,32.3399766 15.8453444,31.63275 L13.3656763,29.2100508 L16.78961,28.7114062 C17.7914357,28.5655781 18.657029,27.9354492 19.1049627,27.0260156 L20.6333942,23.9219883 L22.1618257,27.0262148 C22.6095602,27.9354492 23.4751535,28.5655781 24.4771784,28.7114062 L27.901112,29.2100508 L25.4216432,31.6325508 Z" id="Shape" fill="#333333" fill-rule="nonzero"></path>
                            <path d="M86.4700747,26.4572461 L81.641195,25.7540039 C81.6129129,25.7500195 81.5882158,25.7316914 81.5752697,25.7053945 L79.415668,21.319793 C79.0282822,20.5328789 78.2429544,20.0439961 77.3666058,20.0439961 C76.4902573,20.0439961 75.7049295,20.5328789 75.3175436,21.319793 L73.1579419,25.7053945 C73.1447967,25.7318906 73.1202988,25.7500195 73.0920166,25.7542031 L68.2631369,26.4574453 C67.3969461,26.58375 66.6906888,27.1794141 66.4198174,28.0123477 C66.1487469,28.8458789 66.3696266,29.7441563 66.9964149,30.3565547 L70.4904564,33.7703672 C70.5119668,33.7914844 70.5217261,33.8219648 70.5165477,33.8522461 L69.6917842,38.6723437 C69.5438008,39.5369531 69.8923485,40.3941914 70.6019917,40.9093711 C71.3108382,41.4239531 72.2325975,41.4900937 73.0075685,41.0818945 L77.3267718,38.8060195 C77.3512697,38.7928711 77.3807469,38.7926719 77.4058423,38.8060195 L81.7252448,41.0818945 C82.0628382,41.2597969 82.427917,41.3474557 82.7914025,41.3474557 C83.262639,41.3474557 83.7304896,41.2000312 84.1306224,40.9095703 C84.8400664,40.3943906 85.1890124,39.5371523 85.041029,38.672543 L84.2160664,33.8522461 C84.210888,33.8219648 84.2206473,33.7914844 84.2421577,33.7703672 L87.7363983,30.3565547 C88.3631867,29.7441562 88.5840664,28.8460781 88.3129959,28.0123477 C88.0419253,27.1794141 87.3358672,26.5835508 86.4700747,26.4572461 Z M82.1550539,31.6325508 C81.4310705,32.3397773 81.1008465,33.3581836 81.2717344,34.3562695 L81.8564979,37.7732695 L78.7990373,36.1623867 C78.3505062,35.9259141 77.8587552,35.8077773 77.366805,35.8077773 C76.8750539,35.8077773 76.3831037,35.9259141 75.9347718,36.1621875 L72.877112,37.7732695 L73.4618755,34.3564687 C73.6327635,33.3583828 73.3025394,32.3399766 72.578556,31.63275 L70.098888,29.2100508 L73.5228216,28.7114062 C74.5246473,28.5655781 75.3902407,27.9354492 75.8381743,27.0260156 L77.3666058,23.9219883 L78.8950373,27.0262148 C79.3427718,27.9354492 80.2083651,28.5655781 81.21039,28.7114062 L84.6343237,29.2100508 L82.1550539,31.6325508 Z" id="Shape" fill="#333333" fill-rule="nonzero"></path>
                            <path d="M91.5156197,46 C92.2083985,46 92.7700946,45.4383804 92.7700946,44.7456958 L92.7700946,42.7699218 L94.7455251,42.7699218 C95.438304,42.7699218 96,42.2083022 96,41.5156176 C96,40.8229329 95.438304,40.2613134 94.7455251,40.2613134 L92.7700946,40.2613134 L92.7700946,38.2543042 C92.7700946,37.5616196 92.2083985,37 91.5156197,37 C90.8228408,37 90.2611448,37.5616196 90.2611448,38.2543042 L90.2611448,40.2613134 L88.2544749,40.2613134 C87.561696,40.2613134 87,40.8229329 87,41.5156176 C87,42.2083022 87.561696,42.7699218 88.2544749,42.7699218 L90.2611448,42.7699218 L90.2611448,44.7456958 C90.2611448,45.4383804 90.8228408,46 91.5156197,46 Z" id="Path" fill="#333333" fill-rule="nonzero"></path>
                            <path d="M17.5156197,16 C18.2083985,16 18.7700946,15.4383804 18.7700946,14.7456958 L18.7700946,12.7699218 L20.7455251,12.7699218 C21.438304,12.7699218 22,12.2083022 22,11.5156176 C22,10.8229329 21.438304,10.2613134 20.7455251,10.2613134 L18.7700946,10.2613134 L18.7700946,8.2543042 C18.7700946,7.56161957 18.2083985,7 17.5156197,7 C16.8228408,7 16.2611448,7.56161957 16.2611448,8.2543042 L16.2611448,10.2613134 L14.2544749,10.2613134 C13.561696,10.2613134 13,10.8229329 13,11.5156176 C13,12.2083022 13.561696,12.7699218 14.2544749,12.7699218 L16.2611448,12.7699218 L16.2611448,14.7456958 C16.2611448,15.4383804 16.8228408,16 17.5156197,16 Z" id="Path-Copy-2" fill="#333333" fill-rule="nonzero"></path>
                            <path d="M97.351333,73.7399847 L92.4228966,73.7399847 C92.0518599,73.7399847 91.7383173,73.4231673 91.7383173,73.0482554 C91.7383173,72.2842457 91.1252712,71.6647967 90.3691587,71.6647967 C89.6130461,71.6647967 89,72.2842457 89,73.0482554 C89,74.9552397 90.5356237,76.506902 92.4228966,76.506902 L94.0995812,76.506902 L94.0995812,78.6165414 C94.0995812,79.380551 94.7126272,80 95.4687398,80 C96.2248524,80 96.8378985,79.380551 96.8378985,78.6165414 L96.8378985,76.506902 L97.351333,76.506902 C99.8997865,76.506902 101.972243,74.4121241 101.972243,71.837729 C101.972243,69.2626586 99.8997865,67.1685561 97.351333,67.1685561 L93.6550058,67.1685561 C92.6167717,67.1685561 91.7724126,66.3153784 91.7724126,65.2663005 C91.7724126,64.2172227 92.6167717,63.3640448 93.6550058,63.3640448 L98.5841106,63.3640448 C98.9551473,63.3640448 99.2686899,63.6808622 99.2686899,64.0557742 C99.2686899,64.8197838 99.881736,65.4392328 100.637849,65.4392328 C103.12346,65.4392328 102.071855,60.5971275 98.5841106,60.5971275 L96.8378985,60.5971275 L96.8378985,58.3834586 C96.8378985,57.619449 96.2248524,57 95.4687398,57 C94.7126272,57 94.0995812,57.619449 94.0995812,58.3834586 L94.0995812,60.5971275 C87.2230352,60.5971275 87.6589199,69.9354734 93.6543373,69.9354734 L97.351333,69.9354734 C98.3888985,69.9354734 99.2339261,70.7886513 99.2339261,71.837729 C99.2339261,72.8868069 98.389567,73.7399847 97.351333,73.7399847 Z" id="Path" fill="#333333" fill-rule="nonzero"></path>
                            <circle id="Oval" fill="#FFD542" cx="10.5" cy="59.5" r="10.5"></circle>
                            <path d="M11.4968716,62.4617305 L8.84309819,62.4617305 C8.6433092,62.4617305 8.47447855,62.2826598 8.47447855,62.070753 C8.47447855,61.6389215 8.14437681,61.2887981 7.73723927,61.2887981 C7.33010174,61.2887981 7,61.6389215 7,62.070753 C7,63.1486137 7.8268743,64.0256402 8.84309819,64.0256402 L9.74592831,64.0256402 L9.74592831,65.2180451 C9.74592831,65.6498767 10.0760301,66 10.4831676,66 C10.8903051,66 11.2204069,65.6498767 11.2204069,65.2180451 L11.2204069,64.0256402 L11.4968716,64.0256402 C12.8691158,64.0256402 13.9850541,62.8416353 13.9850541,61.3865425 C13.9850541,59.9310679 12.8691158,58.7474448 11.4968716,58.7474448 L9.50654156,58.7474448 C8.94749247,58.7474448 8.49283756,58.2652139 8.49283756,57.6722568 C8.49283756,57.0792998 8.94749247,56.5970688 9.50654156,56.5970688 L12.1606749,56.5970688 C12.3604639,56.5970688 12.5292946,56.7761395 12.5292946,56.9880463 C12.5292946,57.4198778 12.8593963,57.7700012 13.2665338,57.7700012 C14.6049399,57.7700012 14.0386912,55.033159 12.1606749,55.033159 L11.2204069,55.033159 L11.2204069,53.7819549 C11.2204069,53.3501233 10.8903051,53 10.4831676,53 C10.0760301,53 9.74592831,53.3501233 9.74592831,53.7819549 L9.74592831,55.033159 C6.04317281,55.033159 6.27787994,60.3113545 9.5061816,60.3113545 L11.4968716,60.3113545 C12.0555607,60.3113545 12.5105756,60.7935855 12.5105756,61.3865425 C12.5105756,61.9794996 12.0559207,62.4617305 11.4968716,62.4617305 Z" id="Path-Copy" fill="#333333" fill-rule="nonzero"></path>
                        </g>
                    </g>
                </g>
            </g>
        </g>
    </g>
</svg>