<?xml version="1.0" encoding="UTF-8"?>
<svg width="10px" height="10px" viewBox="0 0 10 10" version="1.1" xmlns="http://www.w3.org/2000/svg" xmlns:xlink="http://www.w3.org/1999/xlink">
    <!-- Generator: Sketch 58 (84663) - https://sketch.com -->
    <title>Group 2</title>
    <desc>Created with Sketch.</desc>
    <g id="Restaurant-Details-Desktop" stroke="none" stroke-width="1" fill="none" fill-rule="evenodd" stroke-linecap="square">
        <g id="07.-Restaurant-Detail-customize-dish-modal" transform="translate(-969.000000, -848.000000)" stroke="#7D7B7B" stroke-width="1.44000011">
            <g id="Group-25" transform="translate(100.000000, 288.000000)">
                <g id="Group-24" transform="translate(0.000000, 52.000000)">
                    <g id="Group-23" transform="translate(535.000000, 0.000000)">
                        <g id="Group-46" transform="translate(28.000000, 32.000000)">
                            <g id="Group-22" transform="translate(249.000000, 467.000000)">
                                <g id="Group-21" transform="translate(0.000000, 0.000000)">
                                    <g id="increment" transform="translate(7.200001, 2.880000)">
                                        <g id="Group-2" transform="translate(50.400004, 7.200001)">
                                            <path d="M4.32000034,0.617142906 L4.32000034,8.02285778" id="Line-5"></path>
                                            <path d="M0.617142906,4.32000034 L8.02285778,4.32000034" id="Line-4"></path>
                                        </g>
                                    </g>
                                </g>
                            </g>
                        </g>
                    </g>
                </g>
            </g>
        </g>
    </g>
</svg>