<?xml version="1.0" encoding="UTF-8"?>
<svg width="24px" height="24px" viewBox="0 0 24 24" version="1.1" xmlns="http://www.w3.org/2000/svg" xmlns:xlink="http://www.w3.org/1999/xlink">
    <!-- Generator: Sketch 52.3 (67297) - http://www.bohemiancoding.com/sketch -->
    <title>icon/navigation/backwards</title>
    <desc>Created with Sketch.</desc>
    <g id="icon/navigation/backwards" stroke="none" stroke-width="1" fill="none" fill-rule="evenodd">
        <g>
            <polygon id="Bounds" opacity="0.87" points="0 0 24 0 24 24 0 24"></polygon>
            <path d="M16.62,2.99 C16.13,2.5 15.34,2.5 14.85,2.99 L6.54,11.3 C6.15,11.69 6.15,12.32 6.54,12.71 L14.85,21.02 C15.34,21.51 16.13,21.51 16.62,21.02 C17.11,20.53 17.11,19.74 16.62,19.25 L9.38,12 L16.63,4.75 C17.11,4.27 17.11,3.47 16.62,2.99 Z" id="Shape" fill="#454545"></path>
        </g>
    </g>
</svg>