<?xml version="1.0" encoding="UTF-8"?>
<svg width="30px" height="30px" viewBox="0 0 30 30" version="1.1" xmlns="http://www.w3.org/2000/svg" xmlns:xlink="http://www.w3.org/1999/xlink">
    <!-- Generator: Sketch 55.2 (78181) - https://sketchapp.com -->
    <title>REMOVE</title>
    <desc>Created with Sketch.</desc>
    <g id="12.-Restaurant-Detail-Page---desktop" stroke="none" stroke-width="1" fill="none" fill-rule="evenodd">
        <g id="desktop:restaurant-detail-customize-dish" transform="translate(-805.000000, -753.000000)">
            <g id="Overlay" transform="translate(0.000000, 96.000000)">
                <g id="review-pop-up" transform="translate(32.000000, 40.000000)">
                    <g id="customize-options" transform="translate(552.000000, 0.000000)">
                        <g id="lower-check-out-bar" transform="translate(0.000000, 584.000000)">
                            <g id="add/remove-number-of-orders" transform="translate(222.000000, 34.000000)">
                                <g id="REMOVE">
                                    <circle id="Oval" stroke="#999999" cx="14" cy="14" r="14"></circle>
                                    <g id="icon/action/remove" transform="translate(2.000000, 2.000000)">
                                        <g>
                                            <rect id="Rectangle" x="0" y="0" width="24" height="24"></rect>
                                            <path d="M18,13 L13,13 L11,13 L6,13 C5.45,13 5,12.55 5,12 C5,11.45 5.45,11 6,11 L11,11 L13,11 L18,11 C18.55,11 19,11.45 19,12 C19,12.55 18.55,13 18,13 Z" id="Mask" fill="#454545"></path>
                                        </g>
                                    </g>
                                </g>
                            </g>
                        </g>
                    </g>
                </g>
            </g>
        </g>
    </g>
</svg>