<?xml version="1.0" encoding="UTF-8"?>
<svg width="24px" height="24px" viewBox="0 0 24 24" version="1.1" xmlns="http://www.w3.org/2000/svg" xmlns:xlink="http://www.w3.org/1999/xlink">
    <!-- Generator: Sketch 52.3 (67297) - http://www.bohemiancoding.com/sketch -->
    <title>icon/information/notifications+with notifications</title>
    <desc>Created with Sketch.</desc>
    <g id="icon/information/notifications+with-notifications" stroke="none" stroke-width="1" fill="none" fill-rule="evenodd">
        <g>
            <polygon id="Bounds" points="0 0 24 0 24 24 0 24"></polygon>
            <path d="M12,22.5 C13.1,22.5 14,21.6 14,20.5 L10,20.5 C10,21.6 10.9,22.5 12,22.5 Z M13.5,4.81793736 C13.1796709,5.47731862 13,6.21767711 13,7 C13,9.76142375 15.2385763,12 18,12 L18,16.5 L20,18.5 L20,19.5 L4,19.5 L4,18.5 L6,16.5 L6,11.5 C6,8.42 7.64,5.86 10.5,5.18 L10.5,4.5 C10.5,3.67 11.17,3 12,3 C12.83,3 13.5,3.67 13.5,4.5 L13.5,4.81793736 Z M12.0828627,6.00057083 C12.0283656,6.3255994 12,6.65948713 12,7 C12,9.97299629 14.1622867,12.4409635 17,12.9170416 L17,17.4027251 C17,17.6221801 17.54,17.9403898 18.62,18.3573543 L18.5637893,18.5029484 C18.5587416,18.5009996 18.5533773,18.5 18.5479665,18.5 L5.70059434,18.3430251 C5.67683224,18.3430251 5.65756926,18.3237621 5.65756926,18.3 C5.65756926,18.2820285 5.66873937,18.2659501 5.68558135,18.2596792 C6.56186045,17.9334067 7,17.6801803 7,17.5 C7,16.1349206 7,14.0873016 7,11.3571429 C7,8.4047619 8.8875,6 12,6 C12.0277182,6 12.0553393,6.00019071 12.0828627,6.00057083 Z" id="Shape" fill="#454545"></path>
            <circle id="Oval" fill="#CE4033" cx="18" cy="7" r="4"></circle>
        </g>
    </g>
</svg>